(kicad_sch
	(version 20231120)
	(generator "eeschema")
	(generator_version "8.0")
	(uuid "cf65700b-5015-422b-973b-c54bbb033739")
	(paper "A5")
	(lib_symbols
		(symbol "Device:C_Polarized"
			(pin_numbers hide)
			(pin_names
				(offset 0.254)
			)
			(exclude_from_sim no)
			(in_bom yes)
			(on_board yes)
			(property "Reference" "C"
				(at 0.635 2.54 0)
				(effects
					(font
						(size 1.27 1.27)
					)
					(justify left)
				)
			)
			(property "Value" "C_Polarized"
				(at 0.635 -2.54 0)
				(effects
					(font
						(size 1.27 1.27)
					)
					(justify left)
				)
			)
			(property "Footprint" ""
				(at 0.9652 -3.81 0)
				(effects
					(font
						(size 1.27 1.27)
					)
					(hide yes)
				)
			)
			(property "Datasheet" "~"
				(at 0 0 0)
				(effects
					(font
						(size 1.27 1.27)
					)
					(hide yes)
				)
			)
			(property "Description" "Polarized capacitor"
				(at 0 0 0)
				(effects
					(font
						(size 1.27 1.27)
					)
					(hide yes)
				)
			)
			(property "ki_keywords" "cap capacitor"
				(at 0 0 0)
				(effects
					(font
						(size 1.27 1.27)
					)
					(hide yes)
				)
			)
			(property "ki_fp_filters" "CP_*"
				(at 0 0 0)
				(effects
					(font
						(size 1.27 1.27)
					)
					(hide yes)
				)
			)
			(symbol "C_Polarized_0_1"
				(rectangle
					(start -2.286 0.508)
					(end 2.286 1.016)
					(stroke
						(width 0)
						(type default)
					)
					(fill
						(type none)
					)
				)
				(polyline
					(pts
						(xy -1.778 2.286) (xy -0.762 2.286)
					)
					(stroke
						(width 0)
						(type default)
					)
					(fill
						(type none)
					)
				)
				(polyline
					(pts
						(xy -1.27 2.794) (xy -1.27 1.778)
					)
					(stroke
						(width 0)
						(type default)
					)
					(fill
						(type none)
					)
				)
				(rectangle
					(start 2.286 -0.508)
					(end -2.286 -1.016)
					(stroke
						(width 0)
						(type default)
					)
					(fill
						(type outline)
					)
				)
			)
			(symbol "C_Polarized_1_1"
				(pin passive line
					(at 0 3.81 270)
					(length 2.794)
					(name "~"
						(effects
							(font
								(size 1.27 1.27)
							)
						)
					)
					(number "1"
						(effects
							(font
								(size 1.27 1.27)
							)
						)
					)
				)
				(pin passive line
					(at 0 -3.81 90)
					(length 2.794)
					(name "~"
						(effects
							(font
								(size 1.27 1.27)
							)
						)
					)
					(number "2"
						(effects
							(font
								(size 1.27 1.27)
							)
						)
					)
				)
			)
		)
		(symbol "Device:LED"
			(pin_numbers hide)
			(pin_names
				(offset 1.016) hide)
			(exclude_from_sim no)
			(in_bom yes)
			(on_board yes)
			(property "Reference" "D"
				(at 0 2.54 0)
				(effects
					(font
						(size 1.27 1.27)
					)
				)
			)
			(property "Value" "LED"
				(at 0 -2.54 0)
				(effects
					(font
						(size 1.27 1.27)
					)
				)
			)
			(property "Footprint" ""
				(at 0 0 0)
				(effects
					(font
						(size 1.27 1.27)
					)
					(hide yes)
				)
			)
			(property "Datasheet" "~"
				(at 0 0 0)
				(effects
					(font
						(size 1.27 1.27)
					)
					(hide yes)
				)
			)
			(property "Description" "Light emitting diode"
				(at 0 0 0)
				(effects
					(font
						(size 1.27 1.27)
					)
					(hide yes)
				)
			)
			(property "ki_keywords" "LED diode"
				(at 0 0 0)
				(effects
					(font
						(size 1.27 1.27)
					)
					(hide yes)
				)
			)
			(property "ki_fp_filters" "LED* LED_SMD:* LED_THT:*"
				(at 0 0 0)
				(effects
					(font
						(size 1.27 1.27)
					)
					(hide yes)
				)
			)
			(symbol "LED_0_1"
				(polyline
					(pts
						(xy -1.27 -1.27) (xy -1.27 1.27)
					)
					(stroke
						(width 0.254)
						(type default)
					)
					(fill
						(type none)
					)
				)
				(polyline
					(pts
						(xy -1.27 0) (xy 1.27 0)
					)
					(stroke
						(width 0)
						(type default)
					)
					(fill
						(type none)
					)
				)
				(polyline
					(pts
						(xy 1.27 -1.27) (xy 1.27 1.27) (xy -1.27 0) (xy 1.27 -1.27)
					)
					(stroke
						(width 0.254)
						(type default)
					)
					(fill
						(type none)
					)
				)
				(polyline
					(pts
						(xy -3.048 -0.762) (xy -4.572 -2.286) (xy -3.81 -2.286) (xy -4.572 -2.286) (xy -4.572 -1.524)
					)
					(stroke
						(width 0)
						(type default)
					)
					(fill
						(type none)
					)
				)
				(polyline
					(pts
						(xy -1.778 -0.762) (xy -3.302 -2.286) (xy -2.54 -2.286) (xy -3.302 -2.286) (xy -3.302 -1.524)
					)
					(stroke
						(width 0)
						(type default)
					)
					(fill
						(type none)
					)
				)
			)
			(symbol "LED_1_1"
				(pin passive line
					(at -3.81 0 0)
					(length 2.54)
					(name "K"
						(effects
							(font
								(size 1.27 1.27)
							)
						)
					)
					(number "1"
						(effects
							(font
								(size 1.27 1.27)
							)
						)
					)
				)
				(pin passive line
					(at 3.81 0 180)
					(length 2.54)
					(name "A"
						(effects
							(font
								(size 1.27 1.27)
							)
						)
					)
					(number "2"
						(effects
							(font
								(size 1.27 1.27)
							)
						)
					)
				)
			)
		)
		(symbol "Device:R"
			(pin_numbers hide)
			(pin_names
				(offset 0)
			)
			(exclude_from_sim no)
			(in_bom yes)
			(on_board yes)
			(property "Reference" "R"
				(at 2.032 0 90)
				(effects
					(font
						(size 1.27 1.27)
					)
				)
			)
			(property "Value" "R"
				(at 0 0 90)
				(effects
					(font
						(size 1.27 1.27)
					)
				)
			)
			(property "Footprint" ""
				(at -1.778 0 90)
				(effects
					(font
						(size 1.27 1.27)
					)
					(hide yes)
				)
			)
			(property "Datasheet" "~"
				(at 0 0 0)
				(effects
					(font
						(size 1.27 1.27)
					)
					(hide yes)
				)
			)
			(property "Description" "Resistor"
				(at 0 0 0)
				(effects
					(font
						(size 1.27 1.27)
					)
					(hide yes)
				)
			)
			(property "ki_keywords" "R res resistor"
				(at 0 0 0)
				(effects
					(font
						(size 1.27 1.27)
					)
					(hide yes)
				)
			)
			(property "ki_fp_filters" "R_*"
				(at 0 0 0)
				(effects
					(font
						(size 1.27 1.27)
					)
					(hide yes)
				)
			)
			(symbol "R_0_1"
				(rectangle
					(start -1.016 -2.54)
					(end 1.016 2.54)
					(stroke
						(width 0.254)
						(type default)
					)
					(fill
						(type none)
					)
				)
			)
			(symbol "R_1_1"
				(pin passive line
					(at 0 3.81 270)
					(length 1.27)
					(name "~"
						(effects
							(font
								(size 1.27 1.27)
							)
						)
					)
					(number "1"
						(effects
							(font
								(size 1.27 1.27)
							)
						)
					)
				)
				(pin passive line
					(at 0 -3.81 90)
					(length 1.27)
					(name "~"
						(effects
							(font
								(size 1.27 1.27)
							)
						)
					)
					(number "2"
						(effects
							(font
								(size 1.27 1.27)
							)
						)
					)
				)
			)
		)
		(symbol "Graphic:Logo_Open_Hardware_Small"
			(exclude_from_sim no)
			(in_bom no)
			(on_board no)
			(property "Reference" "#SYM"
				(at 0 6.985 0)
				(effects
					(font
						(size 1.27 1.27)
					)
					(hide yes)
				)
			)
			(property "Value" "Logo_Open_Hardware_Small"
				(at 0 -5.715 0)
				(effects
					(font
						(size 1.27 1.27)
					)
					(hide yes)
				)
			)
			(property "Footprint" ""
				(at 0 0 0)
				(effects
					(font
						(size 1.27 1.27)
					)
					(hide yes)
				)
			)
			(property "Datasheet" "~"
				(at 0 0 0)
				(effects
					(font
						(size 1.27 1.27)
					)
					(hide yes)
				)
			)
			(property "Description" "Open Hardware logo, small"
				(at 0 0 0)
				(effects
					(font
						(size 1.27 1.27)
					)
					(hide yes)
				)
			)
			(property "Sim.Enable" "0"
				(at 0 0 0)
				(effects
					(font
						(size 1.27 1.27)
					)
					(hide yes)
				)
			)
			(property "ki_keywords" "Logo"
				(at 0 0 0)
				(effects
					(font
						(size 1.27 1.27)
					)
					(hide yes)
				)
			)
			(symbol "Logo_Open_Hardware_Small_0_1"
				(polyline
					(pts
						(xy 3.3528 -4.3434) (xy 3.302 -4.318) (xy 3.175 -4.2418) (xy 2.9972 -4.1148) (xy 2.7686 -3.9624)
						(xy 2.54 -3.81) (xy 2.3622 -3.7084) (xy 2.2352 -3.6068) (xy 2.1844 -3.5814) (xy 2.159 -3.6068)
						(xy 2.0574 -3.6576) (xy 1.905 -3.7338) (xy 1.8034 -3.7846) (xy 1.6764 -3.8354) (xy 1.6002 -3.8354)
						(xy 1.6002 -3.8354) (xy 1.5494 -3.7338) (xy 1.4732 -3.5306) (xy 1.3462 -3.302) (xy 1.2446 -3.0226)
						(xy 1.1176 -2.7178) (xy 0.9652 -2.413) (xy 0.8636 -2.1082) (xy 0.7366 -1.8288) (xy 0.6604 -1.6256)
						(xy 0.6096 -1.4732) (xy 0.5842 -1.397) (xy 0.5842 -1.397) (xy 0.6604 -1.3208) (xy 0.7874 -1.2446)
						(xy 1.0414 -1.016) (xy 1.2954 -0.6858) (xy 1.4478 -0.3302) (xy 1.524 0.0762) (xy 1.4732 0.4572)
						(xy 1.3208 0.8128) (xy 1.0668 1.143) (xy 0.762 1.3716) (xy 0.4064 1.524) (xy 0 1.5748) (xy -0.381 1.5494)
						(xy -0.7366 1.397) (xy -1.0668 1.143) (xy -1.2192 0.9906) (xy -1.397 0.6604) (xy -1.524 0.3048)
						(xy -1.524 0.2286) (xy -1.4986 -0.1778) (xy -1.397 -0.5334) (xy -1.1938 -0.8636) (xy -0.9144 -1.143)
						(xy -0.8636 -1.1684) (xy -0.7366 -1.27) (xy -0.635 -1.3462) (xy -0.5842 -1.397) (xy -1.0668 -2.5908)
						(xy -1.143 -2.794) (xy -1.2954 -3.1242) (xy -1.397 -3.4036) (xy -1.4986 -3.6322) (xy -1.5748 -3.7846)
						(xy -1.6002 -3.8354) (xy -1.6002 -3.8354) (xy -1.651 -3.8354) (xy -1.7272 -3.81) (xy -1.905 -3.7338)
						(xy -2.0066 -3.683) (xy -2.1336 -3.6068) (xy -2.2098 -3.5814) (xy -2.2606 -3.6068) (xy -2.3622 -3.683)
						(xy -2.54 -3.81) (xy -2.7686 -3.9624) (xy -2.9718 -4.0894) (xy -3.1496 -4.2164) (xy -3.302 -4.318)
						(xy -3.3528 -4.3434) (xy -3.3782 -4.3434) (xy -3.429 -4.318) (xy -3.5306 -4.2164) (xy -3.7084 -4.064)
						(xy -3.937 -3.8354) (xy -3.9624 -3.81) (xy -4.1656 -3.6068) (xy -4.318 -3.4544) (xy -4.4196 -3.3274)
						(xy -4.445 -3.2766) (xy -4.445 -3.2766) (xy -4.4196 -3.2258) (xy -4.318 -3.0734) (xy -4.2164 -2.8956)
						(xy -4.064 -2.667) (xy -3.6576 -2.0828) (xy -3.8862 -1.5494) (xy -3.937 -1.3716) (xy -4.0386 -1.1684)
						(xy -4.0894 -1.0414) (xy -4.1148 -0.9652) (xy -4.191 -0.9398) (xy -4.318 -0.9144) (xy -4.5466 -0.8636)
						(xy -4.8006 -0.8128) (xy -5.0546 -0.7874) (xy -5.2578 -0.7366) (xy -5.4356 -0.7112) (xy -5.5118 -0.6858)
						(xy -5.5118 -0.6858) (xy -5.5372 -0.635) (xy -5.5372 -0.5588) (xy -5.5372 -0.4318) (xy -5.5626 -0.2286)
						(xy -5.5626 0.0762) (xy -5.5626 0.127) (xy -5.5372 0.4064) (xy -5.5372 0.635) (xy -5.5372 0.762)
						(xy -5.5372 0.8382) (xy -5.5372 0.8382) (xy -5.461 0.8382) (xy -5.3086 0.889) (xy -5.08 0.9144)
						(xy -4.826 0.9652) (xy -4.8006 0.9906) (xy -4.5466 1.0414) (xy -4.318 1.0668) (xy -4.1656 1.1176)
						(xy -4.0894 1.143) (xy -4.0894 1.143) (xy -4.0386 1.2446) (xy -3.9624 1.4224) (xy -3.8608 1.6256)
						(xy -3.7846 1.8288) (xy -3.7084 2.0066) (xy -3.6576 2.159) (xy -3.6322 2.2098) (xy -3.6322 2.2098)
						(xy -3.683 2.286) (xy -3.7592 2.413) (xy -3.8862 2.5908) (xy -4.064 2.8194) (xy -4.064 2.8448)
						(xy -4.2164 3.0734) (xy -4.3434 3.2512) (xy -4.4196 3.3782) (xy -4.445 3.4544) (xy -4.445 3.4544)
						(xy -4.3942 3.5052) (xy -4.2926 3.6322) (xy -4.1148 3.81) (xy -3.937 4.0132) (xy -3.8608 4.064)
						(xy -3.6576 4.2926) (xy -3.5052 4.4196) (xy -3.4036 4.4958) (xy -3.3528 4.5212) (xy -3.3528 4.5212)
						(xy -3.302 4.4704) (xy -3.1496 4.3688) (xy -2.9718 4.2418) (xy -2.7432 4.0894) (xy -2.7178 4.0894)
						(xy -2.4892 3.937) (xy -2.3114 3.81) (xy -2.1844 3.7084) (xy -2.1336 3.683) (xy -2.1082 3.683)
						(xy -2.032 3.7084) (xy -1.8542 3.7592) (xy -1.6764 3.8354) (xy -1.4732 3.937) (xy -1.27 4.0132)
						(xy -1.143 4.064) (xy -1.0668 4.1148) (xy -1.0668 4.1148) (xy -1.0414 4.191) (xy -1.016 4.3434)
						(xy -0.9652 4.572) (xy -0.9144 4.8514) (xy -0.889 4.9022) (xy -0.8382 5.1562) (xy -0.8128 5.3848)
						(xy -0.7874 5.5372) (xy -0.762 5.588) (xy -0.7112 5.6134) (xy -0.5842 5.6134) (xy -0.4064 5.6134)
						(xy -0.1524 5.6134) (xy 0.0762 5.6134) (xy 0.3302 5.6134) (xy 0.5334 5.6134) (xy 0.6858 5.588)
						(xy 0.7366 5.588) (xy 0.7366 5.588) (xy 0.762 5.5118) (xy 0.8128 5.334) (xy 0.8382 5.1054) (xy 0.9144 4.826)
						(xy 0.9144 4.7752) (xy 0.9652 4.5212) (xy 1.016 4.2926) (xy 1.0414 4.1402) (xy 1.0668 4.0894)
						(xy 1.0668 4.0894) (xy 1.1938 4.0386) (xy 1.3716 3.9624) (xy 1.5748 3.8608) (xy 2.0828 3.6576)
						(xy 2.7178 4.0894) (xy 2.7686 4.1402) (xy 2.9972 4.2926) (xy 3.175 4.4196) (xy 3.302 4.4958) (xy 3.3782 4.5212)
						(xy 3.3782 4.5212) (xy 3.429 4.4704) (xy 3.556 4.3434) (xy 3.7338 4.191) (xy 3.9116 3.9878) (xy 4.064 3.8354)
						(xy 4.2418 3.6576) (xy 4.3434 3.556) (xy 4.4196 3.4798) (xy 4.4196 3.429) (xy 4.4196 3.4036) (xy 4.3942 3.3274)
						(xy 4.2926 3.2004) (xy 4.1656 2.9972) (xy 4.0132 2.794) (xy 3.8862 2.5908) (xy 3.7592 2.3876)
						(xy 3.6576 2.2352) (xy 3.6322 2.159) (xy 3.6322 2.1336) (xy 3.683 2.0066) (xy 3.7592 1.8288) (xy 3.8608 1.6002)
						(xy 4.064 1.1176) (xy 4.3942 1.0414) (xy 4.5974 1.016) (xy 4.8768 0.9652) (xy 5.1308 0.9144) (xy 5.5372 0.8382)
						(xy 5.5626 -0.6604) (xy 5.4864 -0.6858) (xy 5.4356 -0.6858) (xy 5.2832 -0.7366) (xy 5.0546 -0.762)
						(xy 4.8006 -0.8128) (xy 4.5974 -0.8636) (xy 4.3688 -0.9144) (xy 4.2164 -0.9398) (xy 4.1402 -0.9398)
						(xy 4.1148 -0.9652) (xy 4.064 -1.0668) (xy 3.9878 -1.2446) (xy 3.9116 -1.4478) (xy 3.81 -1.651)
						(xy 3.7338 -1.8542) (xy 3.683 -2.0066) (xy 3.6576 -2.0828) (xy 3.683 -2.1336) (xy 3.7846 -2.2606)
						(xy 3.8862 -2.4638) (xy 4.0386 -2.667) (xy 4.191 -2.8956) (xy 4.318 -3.0734) (xy 4.3942 -3.2004)
						(xy 4.445 -3.2766) (xy 4.4196 -3.3274) (xy 4.3434 -3.429) (xy 4.1656 -3.5814) (xy 3.937 -3.8354)
						(xy 3.8862 -3.8608) (xy 3.683 -4.064) (xy 3.5306 -4.2164) (xy 3.4036 -4.318) (xy 3.3528 -4.3434)
					)
					(stroke
						(width 0)
						(type default)
					)
					(fill
						(type outline)
					)
				)
			)
		)
		(symbol "Timer:LM555xMM"
			(exclude_from_sim no)
			(in_bom yes)
			(on_board yes)
			(property "Reference" "U"
				(at -10.16 8.89 0)
				(effects
					(font
						(size 1.27 1.27)
					)
					(justify left)
				)
			)
			(property "Value" "LM555xMM"
				(at 2.54 8.89 0)
				(effects
					(font
						(size 1.27 1.27)
					)
					(justify left)
				)
			)
			(property "Footprint" "Package_SO:VSSOP-8_3.0x3.0mm_P0.65mm"
				(at 16.51 -10.16 0)
				(effects
					(font
						(size 1.27 1.27)
					)
					(hide yes)
				)
			)
			(property "Datasheet" "http://www.ti.com/lit/ds/symlink/lm555.pdf"
				(at 21.59 -10.16 0)
				(effects
					(font
						(size 1.27 1.27)
					)
					(hide yes)
				)
			)
			(property "Description" "Precision Timers, 555 compatible, VSSOP-8"
				(at 0 0 0)
				(effects
					(font
						(size 1.27 1.27)
					)
					(hide yes)
				)
			)
			(property "ki_keywords" "single timer 555"
				(at 0 0 0)
				(effects
					(font
						(size 1.27 1.27)
					)
					(hide yes)
				)
			)
			(property "ki_fp_filters" "*VSSOP*3.0x3.0mm*P0.65mm*"
				(at 0 0 0)
				(effects
					(font
						(size 1.27 1.27)
					)
					(hide yes)
				)
			)
			(symbol "LM555xMM_0_0"
				(pin power_in line
					(at 0 -10.16 90)
					(length 2.54)
					(name "GND"
						(effects
							(font
								(size 1.27 1.27)
							)
						)
					)
					(number "1"
						(effects
							(font
								(size 1.27 1.27)
							)
						)
					)
				)
				(pin power_in line
					(at 0 10.16 270)
					(length 2.54)
					(name "VCC"
						(effects
							(font
								(size 1.27 1.27)
							)
						)
					)
					(number "8"
						(effects
							(font
								(size 1.27 1.27)
							)
						)
					)
				)
			)
			(symbol "LM555xMM_0_1"
				(rectangle
					(start -8.89 -7.62)
					(end 8.89 7.62)
					(stroke
						(width 0.254)
						(type default)
					)
					(fill
						(type background)
					)
				)
				(rectangle
					(start -8.89 -7.62)
					(end 8.89 7.62)
					(stroke
						(width 0.254)
						(type default)
					)
					(fill
						(type background)
					)
				)
			)
			(symbol "LM555xMM_1_1"
				(pin input line
					(at -12.7 5.08 0)
					(length 3.81)
					(name "TR"
						(effects
							(font
								(size 1.27 1.27)
							)
						)
					)
					(number "2"
						(effects
							(font
								(size 1.27 1.27)
							)
						)
					)
				)
				(pin output line
					(at 12.7 5.08 180)
					(length 3.81)
					(name "Q"
						(effects
							(font
								(size 1.27 1.27)
							)
						)
					)
					(number "3"
						(effects
							(font
								(size 1.27 1.27)
							)
						)
					)
				)
				(pin input inverted
					(at -12.7 -5.08 0)
					(length 3.81)
					(name "R"
						(effects
							(font
								(size 1.27 1.27)
							)
						)
					)
					(number "4"
						(effects
							(font
								(size 1.27 1.27)
							)
						)
					)
				)
				(pin input line
					(at -12.7 0 0)
					(length 3.81)
					(name "CV"
						(effects
							(font
								(size 1.27 1.27)
							)
						)
					)
					(number "5"
						(effects
							(font
								(size 1.27 1.27)
							)
						)
					)
				)
				(pin input line
					(at 12.7 -5.08 180)
					(length 3.81)
					(name "THR"
						(effects
							(font
								(size 1.27 1.27)
							)
						)
					)
					(number "6"
						(effects
							(font
								(size 1.27 1.27)
							)
						)
					)
				)
				(pin input line
					(at 12.7 0 180)
					(length 3.81)
					(name "DIS"
						(effects
							(font
								(size 1.27 1.27)
							)
						)
					)
					(number "7"
						(effects
							(font
								(size 1.27 1.27)
							)
						)
					)
				)
			)
		)
		(symbol "power:+3V0"
			(power)
			(pin_numbers hide)
			(pin_names
				(offset 0) hide)
			(exclude_from_sim no)
			(in_bom yes)
			(on_board yes)
			(property "Reference" "#PWR"
				(at 0 -3.81 0)
				(effects
					(font
						(size 1.27 1.27)
					)
					(hide yes)
				)
			)
			(property "Value" "+3V0"
				(at 0 3.556 0)
				(effects
					(font
						(size 1.27 1.27)
					)
				)
			)
			(property "Footprint" ""
				(at 0 0 0)
				(effects
					(font
						(size 1.27 1.27)
					)
					(hide yes)
				)
			)
			(property "Datasheet" ""
				(at 0 0 0)
				(effects
					(font
						(size 1.27 1.27)
					)
					(hide yes)
				)
			)
			(property "Description" "Power symbol creates a global label with name \"+3V0\""
				(at 0 0 0)
				(effects
					(font
						(size 1.27 1.27)
					)
					(hide yes)
				)
			)
			(property "ki_keywords" "global power"
				(at 0 0 0)
				(effects
					(font
						(size 1.27 1.27)
					)
					(hide yes)
				)
			)
			(symbol "+3V0_0_1"
				(polyline
					(pts
						(xy -0.762 1.27) (xy 0 2.54)
					)
					(stroke
						(width 0)
						(type default)
					)
					(fill
						(type none)
					)
				)
				(polyline
					(pts
						(xy 0 0) (xy 0 2.54)
					)
					(stroke
						(width 0)
						(type default)
					)
					(fill
						(type none)
					)
				)
				(polyline
					(pts
						(xy 0 2.54) (xy 0.762 1.27)
					)
					(stroke
						(width 0)
						(type default)
					)
					(fill
						(type none)
					)
				)
			)
			(symbol "+3V0_1_1"
				(pin power_in line
					(at 0 0 90)
					(length 0)
					(name "~"
						(effects
							(font
								(size 1.27 1.27)
							)
						)
					)
					(number "1"
						(effects
							(font
								(size 1.27 1.27)
							)
						)
					)
				)
			)
		)
		(symbol "power:GND"
			(power)
			(pin_numbers hide)
			(pin_names
				(offset 0) hide)
			(exclude_from_sim no)
			(in_bom yes)
			(on_board yes)
			(property "Reference" "#PWR"
				(at 0 -6.35 0)
				(effects
					(font
						(size 1.27 1.27)
					)
					(hide yes)
				)
			)
			(property "Value" "GND"
				(at 0 -3.81 0)
				(effects
					(font
						(size 1.27 1.27)
					)
				)
			)
			(property "Footprint" ""
				(at 0 0 0)
				(effects
					(font
						(size 1.27 1.27)
					)
					(hide yes)
				)
			)
			(property "Datasheet" ""
				(at 0 0 0)
				(effects
					(font
						(size 1.27 1.27)
					)
					(hide yes)
				)
			)
			(property "Description" "Power symbol creates a global label with name \"GND\" , ground"
				(at 0 0 0)
				(effects
					(font
						(size 1.27 1.27)
					)
					(hide yes)
				)
			)
			(property "ki_keywords" "global power"
				(at 0 0 0)
				(effects
					(font
						(size 1.27 1.27)
					)
					(hide yes)
				)
			)
			(symbol "GND_0_1"
				(polyline
					(pts
						(xy 0 0) (xy 0 -1.27) (xy 1.27 -1.27) (xy 0 -2.54) (xy -1.27 -1.27) (xy 0 -1.27)
					)
					(stroke
						(width 0)
						(type default)
					)
					(fill
						(type none)
					)
				)
			)
			(symbol "GND_1_1"
				(pin power_in line
					(at 0 0 270)
					(length 0)
					(name "~"
						(effects
							(font
								(size 1.27 1.27)
							)
						)
					)
					(number "1"
						(effects
							(font
								(size 1.27 1.27)
							)
						)
					)
				)
			)
		)
	)
	(junction
		(at 97.79 68.58)
		(diameter 0)
		(color 0 0 0 0)
		(uuid "0292bb52-f350-4876-a2f9-213103cce010")
	)
	(junction
		(at 111.76 60.96)
		(diameter 0)
		(color 0 0 0 0)
		(uuid "0460fd13-b3d7-4206-9dbf-23fd029ce449")
	)
	(junction
		(at 97.79 69.85)
		(diameter 0)
		(color 0 0 0 0)
		(uuid "25af8701-1429-4fe6-8e4a-3cd7739c07bb")
	)
	(junction
		(at 97.79 43.18)
		(diameter 0)
		(color 0 0 0 0)
		(uuid "47dfe23f-571d-445f-a0b7-3b141af968cd")
	)
	(junction
		(at 81.28 50.8)
		(diameter 0)
		(color 0 0 0 0)
		(uuid "c70d1697-7bec-4996-be67-07748136f49e")
	)
	(junction
		(at 120.65 55.88)
		(diameter 0)
		(color 0 0 0 0)
		(uuid "e8bc99de-2e29-497d-8039-9c5edee8a97f")
	)
	(junction
		(at 97.79 44.45)
		(diameter 0)
		(color 0 0 0 0)
		(uuid "ee4c5d95-3626-43f4-a011-9738495e569f")
	)
	(no_connect
		(at 82.55 55.88)
		(uuid "d911a0c0-740b-4eac-911f-4c1ab427bec9")
	)
	(wire
		(pts
			(xy 74.93 68.58) (xy 97.79 68.58)
		)
		(stroke
			(width 0)
			(type default)
		)
		(uuid "00621207-6c0d-44db-96d6-65875a4c46c8")
	)
	(wire
		(pts
			(xy 97.79 43.18) (xy 111.76 43.18)
		)
		(stroke
			(width 0)
			(type default)
		)
		(uuid "06314627-3b1d-4134-8de0-558658cffc16")
	)
	(wire
		(pts
			(xy 97.79 69.85) (xy 97.79 71.12)
		)
		(stroke
			(width 0)
			(type default)
		)
		(uuid "0dda04b4-a12b-4a94-be8f-13e786a55349")
	)
	(wire
		(pts
			(xy 111.76 60.96) (xy 111.76 77.47)
		)
		(stroke
			(width 0)
			(type default)
		)
		(uuid "112ea9b5-b98e-4441-ba67-3c484415e1d7")
	)
	(wire
		(pts
			(xy 120.65 43.18) (xy 120.65 55.88)
		)
		(stroke
			(width 0)
			(type default)
		)
		(uuid "30004d1f-a760-4917-8013-73870ebfd764")
	)
	(wire
		(pts
			(xy 97.79 66.04) (xy 97.79 68.58)
		)
		(stroke
			(width 0)
			(type default)
		)
		(uuid "347d5050-c2a4-4a1e-bea3-0b064ede2b5b")
	)
	(wire
		(pts
			(xy 120.65 43.18) (xy 119.38 43.18)
		)
		(stroke
			(width 0)
			(type default)
		)
		(uuid "361aaf56-f0e7-4d31-ad68-9502fd90d81e")
	)
	(wire
		(pts
			(xy 80.01 44.45) (xy 80.01 60.96)
		)
		(stroke
			(width 0)
			(type default)
		)
		(uuid "36a47dba-290f-4131-8009-b708d9de0db7")
	)
	(wire
		(pts
			(xy 97.79 44.45) (xy 97.79 45.72)
		)
		(stroke
			(width 0)
			(type default)
		)
		(uuid "45bd4dc5-042c-4194-90a3-c191962e9ff0")
	)
	(wire
		(pts
			(xy 97.79 43.18) (xy 97.79 44.45)
		)
		(stroke
			(width 0)
			(type default)
		)
		(uuid "4e081081-df22-4450-82ee-d343029d46f1")
	)
	(wire
		(pts
			(xy 120.65 60.96) (xy 119.38 60.96)
		)
		(stroke
			(width 0)
			(type default)
		)
		(uuid "57b87a01-8712-4ff1-860c-6fb96a2da270")
	)
	(wire
		(pts
			(xy 97.79 68.58) (xy 97.79 69.85)
		)
		(stroke
			(width 0)
			(type default)
		)
		(uuid "5ba29533-de4f-4994-9f55-4183617bbe83")
	)
	(wire
		(pts
			(xy 74.93 50.8) (xy 74.93 52.07)
		)
		(stroke
			(width 0)
			(type default)
		)
		(uuid "5c729838-b58f-4d69-870b-5e52927f484f")
	)
	(wire
		(pts
			(xy 110.49 55.88) (xy 120.65 55.88)
		)
		(stroke
			(width 0)
			(type default)
		)
		(uuid "6164d0fd-d13e-4f51-aecc-4a3d8a17ae5b")
	)
	(wire
		(pts
			(xy 81.28 50.8) (xy 85.09 50.8)
		)
		(stroke
			(width 0)
			(type default)
		)
		(uuid "883f04cc-d988-4474-8e6b-e84a5be8d35d")
	)
	(wire
		(pts
			(xy 80.01 60.96) (xy 85.09 60.96)
		)
		(stroke
			(width 0)
			(type default)
		)
		(uuid "8aed7ef2-c3d6-4e31-9a24-adf634bf3625")
	)
	(wire
		(pts
			(xy 74.93 50.8) (xy 81.28 50.8)
		)
		(stroke
			(width 0)
			(type default)
		)
		(uuid "8fe07d29-56d7-4de7-bbaf-d2d106db3385")
	)
	(wire
		(pts
			(xy 82.55 55.88) (xy 85.09 55.88)
		)
		(stroke
			(width 0)
			(type default)
		)
		(uuid "a0737575-a938-423c-a607-9e7acb52b9d9")
	)
	(wire
		(pts
			(xy 129.54 59.69) (xy 129.54 60.96)
		)
		(stroke
			(width 0)
			(type default)
		)
		(uuid "a4edf94a-ad6b-40b2-9ab5-7c876060ad00")
	)
	(wire
		(pts
			(xy 81.28 50.8) (xy 81.28 77.47)
		)
		(stroke
			(width 0)
			(type default)
		)
		(uuid "a840f959-6e13-4a49-9573-76a6387dfa5a")
	)
	(wire
		(pts
			(xy 129.54 69.85) (xy 129.54 68.58)
		)
		(stroke
			(width 0)
			(type default)
		)
		(uuid "ad9ddfb7-396c-48ce-99d8-8837f1bb1f92")
	)
	(wire
		(pts
			(xy 110.49 60.96) (xy 111.76 60.96)
		)
		(stroke
			(width 0)
			(type default)
		)
		(uuid "be30df45-a4de-4c6e-ad1a-b414f14d6f23")
	)
	(wire
		(pts
			(xy 74.93 59.69) (xy 74.93 68.58)
		)
		(stroke
			(width 0)
			(type default)
		)
		(uuid "ca9d9a3a-a518-4226-bc45-cbff4121a9ce")
	)
	(wire
		(pts
			(xy 129.54 50.8) (xy 110.49 50.8)
		)
		(stroke
			(width 0)
			(type default)
		)
		(uuid "ccb46e2a-d54b-4004-b9e6-c30b84c4818e")
	)
	(wire
		(pts
			(xy 120.65 55.88) (xy 120.65 60.96)
		)
		(stroke
			(width 0)
			(type default)
		)
		(uuid "e1b41dca-7d92-47bf-ab02-c59c42653448")
	)
	(wire
		(pts
			(xy 80.01 44.45) (xy 97.79 44.45)
		)
		(stroke
			(width 0)
			(type default)
		)
		(uuid "e545d113-df74-44a5-91e2-a7f02e36c7c8")
	)
	(wire
		(pts
			(xy 97.79 40.64) (xy 97.79 43.18)
		)
		(stroke
			(width 0)
			(type default)
		)
		(uuid "e94a1ca9-a286-43ce-a77b-0e0b8f0a5de4")
	)
	(wire
		(pts
			(xy 81.28 77.47) (xy 111.76 77.47)
		)
		(stroke
			(width 0)
			(type default)
		)
		(uuid "f3a86f55-d136-43e2-96d3-6b525a59658a")
	)
	(wire
		(pts
			(xy 97.79 69.85) (xy 129.54 69.85)
		)
		(stroke
			(width 0)
			(type default)
		)
		(uuid "ff4f342f-103e-4a80-8bed-60f7c686234e")
	)
	(wire
		(pts
			(xy 129.54 52.07) (xy 129.54 50.8)
		)
		(stroke
			(width 0)
			(type default)
		)
		(uuid "ffe5f6c6-6da2-4a8c-8af7-e9f320a3b2dc")
	)
	(symbol
		(lib_id "Graphic:Logo_Open_Hardware_Small")
		(at 190.5 97.79 0)
		(unit 1)
		(exclude_from_sim yes)
		(in_bom no)
		(on_board no)
		(dnp no)
		(fields_autoplaced yes)
		(uuid "0a5f3f1d-2d6c-40f3-89c6-02c7bf227dd8")
		(property "Reference" "#SYM2001"
			(at 190.5 90.805 0)
			(effects
				(font
					(size 1.27 1.27)
				)
				(hide yes)
			)
		)
		(property "Value" "Logo_Open_Hardware_Small"
			(at 190.5 103.505 0)
			(effects
				(font
					(size 1.27 1.27)
				)
				(hide yes)
			)
		)
		(property "Footprint" "Symbol:OSHW-Logo_5.7x6mm_SilkScreen"
			(at 190.5 97.79 0)
			(effects
				(font
					(size 1.27 1.27)
				)
				(hide yes)
			)
		)
		(property "Datasheet" "~"
			(at 190.5 97.79 0)
			(effects
				(font
					(size 1.27 1.27)
				)
				(hide yes)
			)
		)
		(property "Description" ""
			(at 190.5 97.79 0)
			(effects
				(font
					(size 1.27 1.27)
				)
				(hide yes)
			)
		)
		(instances
			(project "world"
				(path "/ffcfa3ff-e6a8-4865-934e-8ce49f298d00/052b5f82-543f-428b-b324-d980e3eeceda"
					(reference "#SYM2001")
					(unit 1)
				)
			)
		)
	)
	(symbol
		(lib_id "Device:LED")
		(at 129.54 64.77 270)
		(mirror x)
		(unit 1)
		(exclude_from_sim no)
		(in_bom yes)
		(on_board yes)
		(dnp no)
		(uuid "13feee7d-b5b1-4420-8082-ad50b1fe6c22")
		(property "Reference" "D1"
			(at 132.08 67.6275 90)
			(effects
				(font
					(size 1.27 1.27)
				)
				(justify left)
			)
		)
		(property "Value" "LED"
			(at 132.08 65.0875 90)
			(effects
				(font
					(size 1.27 1.27)
				)
				(justify left)
			)
		)
		(property "Footprint" "LED_SMD:LED_0805_2012Metric"
			(at 129.54 64.77 0)
			(effects
				(font
					(size 1.27 1.27)
				)
				(hide yes)
			)
		)
		(property "Datasheet" "~"
			(at 129.54 64.77 0)
			(effects
				(font
					(size 1.27 1.27)
				)
				(hide yes)
			)
		)
		(property "Description" ""
			(at 129.54 64.77 0)
			(effects
				(font
					(size 1.27 1.27)
				)
				(hide yes)
			)
		)
		(pin "2"
			(uuid "cc081174-3f18-40d1-b632-3a5509f299e9")
		)
		(pin "1"
			(uuid "3dad0505-e99d-45b1-ad42-049fad2cc0af")
		)
		(instances
			(project "world"
				(path "/ffcfa3ff-e6a8-4865-934e-8ce49f298d00/052b5f82-543f-428b-b324-d980e3eeceda"
					(reference "D1")
					(unit 1)
				)
			)
		)
	)
	(symbol
		(lib_id "Device:C_Polarized")
		(at 74.93 55.88 0)
		(mirror y)
		(unit 1)
		(exclude_from_sim no)
		(in_bom yes)
		(on_board yes)
		(dnp no)
		(uuid "239a19dd-dbcf-4e48-b3f4-7ad9d89d366a")
		(property "Reference" "C1"
			(at 71.12 53.721 0)
			(effects
				(font
					(size 1.27 1.27)
				)
				(justify left)
			)
		)
		(property "Value" "1 µF"
			(at 71.12 56.261 0)
			(effects
				(font
					(size 1.27 1.27)
				)
				(justify left)
			)
		)
		(property "Footprint" "Capacitor_SMD:CP_Elec_5x3"
			(at 73.9648 59.69 0)
			(effects
				(font
					(size 1.27 1.27)
				)
				(hide yes)
			)
		)
		(property "Datasheet" "~"
			(at 74.93 55.88 0)
			(effects
				(font
					(size 1.27 1.27)
				)
				(hide yes)
			)
		)
		(property "Description" ""
			(at 74.93 55.88 0)
			(effects
				(font
					(size 1.27 1.27)
				)
				(hide yes)
			)
		)
		(property "LCSC" ""
			(at 74.93 55.88 0)
			(effects
				(font
					(size 1.27 1.27)
				)
				(hide yes)
			)
		)
		(property "tolerance" "20%"
			(at 74.93 55.88 0)
			(effects
				(font
					(size 1.27 1.27)
				)
				(hide yes)
			)
		)
		(property "voltage" "10 V"
			(at 74.93 55.88 0)
			(effects
				(font
					(size 1.27 1.27)
				)
				(hide yes)
			)
		)
		(property "power" ""
			(at 74.93 55.88 0)
			(effects
				(font
					(size 1.27 1.27)
				)
				(hide yes)
			)
		)
		(property "temp_coef" ""
			(at 74.93 55.88 0)
			(effects
				(font
					(size 1.27 1.27)
				)
				(hide yes)
			)
		)
		(property "package" ""
			(at 74.93 55.88 0)
			(effects
				(font
					(size 1.27 1.27)
				)
				(hide yes)
			)
		)
		(pin "1"
			(uuid "a7ad944a-cd1b-488a-aebd-5c40ee1ed8bc")
		)
		(pin "2"
			(uuid "9147cf18-38ab-4fdf-a9c1-4beba6409bed")
		)
		(instances
			(project "world"
				(path "/ffcfa3ff-e6a8-4865-934e-8ce49f298d00/052b5f82-543f-428b-b324-d980e3eeceda"
					(reference "C1")
					(unit 1)
				)
			)
		)
	)
	(symbol
		(lib_id "Device:R")
		(at 129.54 55.88 0)
		(unit 1)
		(exclude_from_sim no)
		(in_bom yes)
		(on_board yes)
		(dnp no)
		(uuid "28a80869-7a82-46b9-bec0-a793ad685447")
		(property "Reference" "R3"
			(at 129.54 55.88 90)
			(effects
				(font
					(size 1.27 1.27)
				)
			)
		)
		(property "Value" "1 kΩ"
			(at 127 55.88 90)
			(effects
				(font
					(size 1.27 1.27)
				)
			)
		)
		(property "Footprint" "Resistor_SMD:R_0805_2012Metric"
			(at 127.762 55.88 90)
			(effects
				(font
					(size 1.27 1.27)
				)
				(hide yes)
			)
		)
		(property "Datasheet" "~"
			(at 129.54 55.88 0)
			(effects
				(font
					(size 1.27 1.27)
				)
				(hide yes)
			)
		)
		(property "Description" ""
			(at 129.54 55.88 0)
			(effects
				(font
					(size 1.27 1.27)
				)
				(hide yes)
			)
		)
		(property "LCSC" ""
			(at 129.54 55.88 0)
			(effects
				(font
					(size 1.27 1.27)
				)
				(hide yes)
			)
		)
		(property "tolerance" "5%"
			(at 129.54 55.88 0)
			(effects
				(font
					(size 1.27 1.27)
				)
				(hide yes)
			)
		)
		(property "voltage" ""
			(at 129.54 55.88 0)
			(effects
				(font
					(size 1.27 1.27)
				)
				(hide yes)
			)
		)
		(property "power" "125 mW"
			(at 129.54 55.88 0)
			(effects
				(font
					(size 1.27 1.27)
				)
				(hide yes)
			)
		)
		(property "temp_coef" ""
			(at 129.54 55.88 0)
			(effects
				(font
					(size 1.27 1.27)
				)
				(hide yes)
			)
		)
		(property "package" ""
			(at 129.54 55.88 0)
			(effects
				(font
					(size 1.27 1.27)
				)
				(hide yes)
			)
		)
		(pin "2"
			(uuid "04fa53a3-58c6-45ab-8f1c-46bb54df2c5e")
		)
		(pin "1"
			(uuid "acaa93a3-d401-4d61-8dd0-528f48309743")
		)
		(instances
			(project "world"
				(path "/ffcfa3ff-e6a8-4865-934e-8ce49f298d00/052b5f82-543f-428b-b324-d980e3eeceda"
					(reference "R3")
					(unit 1)
				)
			)
		)
	)
	(symbol
		(lib_id "Timer:LM555xMM")
		(at 97.79 55.88 0)
		(unit 1)
		(exclude_from_sim no)
		(in_bom yes)
		(on_board yes)
		(dnp no)
		(uuid "38d5c350-5159-4d52-9b0b-2cbce37000ea")
		(property "Reference" "U1"
			(at 99.06 44.45 0)
			(effects
				(font
					(size 1.27 1.27)
				)
				(justify left)
			)
		)
		(property "Value" "LM555xMM"
			(at 99.06 46.99 0)
			(effects
				(font
					(size 1.27 1.27)
				)
				(justify left)
			)
		)
		(property "Footprint" "Package_SO:VSSOP-8_3.0x3.0mm_P0.65mm"
			(at 114.3 66.04 0)
			(effects
				(font
					(size 1.27 1.27)
				)
				(hide yes)
			)
		)
		(property "Datasheet" "http://www.ti.com/lit/ds/symlink/lm555.pdf"
			(at 119.38 66.04 0)
			(effects
				(font
					(size 1.27 1.27)
				)
				(hide yes)
			)
		)
		(property "Description" "Precision Timers, 555 compatible, VSSOP-8"
			(at 97.79 55.88 0)
			(effects
				(font
					(size 1.27 1.27)
				)
				(hide yes)
			)
		)
		(property "LCSC" ""
			(at 97.79 55.88 0)
			(effects
				(font
					(size 1.27 1.27)
				)
				(hide yes)
			)
		)
		(property "tolerance" ""
			(at 97.79 55.88 0)
			(effects
				(font
					(size 1.27 1.27)
				)
				(hide yes)
			)
		)
		(property "voltage" ""
			(at 97.79 55.88 0)
			(effects
				(font
					(size 1.27 1.27)
				)
				(hide yes)
			)
		)
		(property "power" ""
			(at 97.79 55.88 0)
			(effects
				(font
					(size 1.27 1.27)
				)
				(hide yes)
			)
		)
		(property "temp_coef" ""
			(at 97.79 55.88 0)
			(effects
				(font
					(size 1.27 1.27)
				)
				(hide yes)
			)
		)
		(property "package" ""
			(at 97.79 55.88 0)
			(effects
				(font
					(size 1.27 1.27)
				)
				(hide yes)
			)
		)
		(pin "2"
			(uuid "cce10e1d-abe7-477e-aa55-6bb1b54eda90")
		)
		(pin "6"
			(uuid "81bcbdcb-de5e-4851-a554-21536eb0c72a")
		)
		(pin "8"
			(uuid "09100538-d57a-4747-9b54-d4e65404541a")
		)
		(pin "4"
			(uuid "c4d15215-ea69-4084-bf9f-e0cda85481a4")
		)
		(pin "5"
			(uuid "e04b8fb2-b3a0-4da3-8374-34217390e7b6")
		)
		(pin "3"
			(uuid "ce8d5eea-3e66-4120-ac1b-be1be7e2093f")
		)
		(pin "1"
			(uuid "24761cb5-fc3d-4614-b9c4-31a8c6c2aa15")
		)
		(pin "7"
			(uuid "d46fc4a4-37af-4416-aa4c-f17575ed7c72")
		)
		(instances
			(project "world"
				(path "/ffcfa3ff-e6a8-4865-934e-8ce49f298d00/052b5f82-543f-428b-b324-d980e3eeceda"
					(reference "U1")
					(unit 1)
				)
			)
		)
	)
	(symbol
		(lib_id "Device:R")
		(at 115.57 43.18 270)
		(unit 1)
		(exclude_from_sim no)
		(in_bom yes)
		(on_board yes)
		(dnp no)
		(uuid "53992f12-574e-4dd8-81b7-bba52b59446f")
		(property "Reference" "R1"
			(at 115.57 43.18 90)
			(effects
				(font
					(size 1.27 1.27)
				)
			)
		)
		(property "Value" "1 kΩ"
			(at 115.57 40.64 90)
			(effects
				(font
					(size 1.27 1.27)
				)
			)
		)
		(property "Footprint" "Resistor_SMD:R_0805_2012Metric"
			(at 115.57 41.402 90)
			(effects
				(font
					(size 1.27 1.27)
				)
				(hide yes)
			)
		)
		(property "Datasheet" "~"
			(at 115.57 43.18 0)
			(effects
				(font
					(size 1.27 1.27)
				)
				(hide yes)
			)
		)
		(property "Description" ""
			(at 115.57 43.18 0)
			(effects
				(font
					(size 1.27 1.27)
				)
				(hide yes)
			)
		)
		(property "LCSC" ""
			(at 115.57 43.18 0)
			(effects
				(font
					(size 1.27 1.27)
				)
				(hide yes)
			)
		)
		(property "tolerance" "5%"
			(at 115.57 43.18 0)
			(effects
				(font
					(size 1.27 1.27)
				)
				(hide yes)
			)
		)
		(property "voltage" ""
			(at 115.57 43.18 0)
			(effects
				(font
					(size 1.27 1.27)
				)
				(hide yes)
			)
		)
		(property "power" "125 mW"
			(at 115.57 43.18 0)
			(effects
				(font
					(size 1.27 1.27)
				)
				(hide yes)
			)
		)
		(property "temp_coef" ""
			(at 115.57 43.18 0)
			(effects
				(font
					(size 1.27 1.27)
				)
				(hide yes)
			)
		)
		(property "package" ""
			(at 115.57 43.18 0)
			(effects
				(font
					(size 1.27 1.27)
				)
				(hide yes)
			)
		)
		(pin "2"
			(uuid "73850953-0932-4e4f-bfd7-b80084a738ae")
		)
		(pin "1"
			(uuid "93656ecf-9f56-4c1a-b9b7-07b99996a994")
		)
		(instances
			(project "world"
				(path "/ffcfa3ff-e6a8-4865-934e-8ce49f298d00/052b5f82-543f-428b-b324-d980e3eeceda"
					(reference "R1")
					(unit 1)
				)
			)
		)
	)
	(symbol
		(lib_id "Device:R")
		(at 115.57 60.96 90)
		(unit 1)
		(exclude_from_sim no)
		(in_bom yes)
		(on_board yes)
		(dnp no)
		(uuid "76a1aaa1-d41b-4e73-9696-3949ad9eb849")
		(property "Reference" "R2"
			(at 115.57 60.96 90)
			(effects
				(font
					(size 1.27 1.27)
				)
			)
		)
		(property "Value" "100 Ω"
			(at 115.57 58.42 90)
			(effects
				(font
					(size 1.27 1.27)
				)
			)
		)
		(property "Footprint" "Resistor_SMD:R_0805_2012Metric"
			(at 115.57 62.738 90)
			(effects
				(font
					(size 1.27 1.27)
				)
				(hide yes)
			)
		)
		(property "Datasheet" "~"
			(at 115.57 60.96 0)
			(effects
				(font
					(size 1.27 1.27)
				)
				(hide yes)
			)
		)
		(property "Description" ""
			(at 115.57 60.96 0)
			(effects
				(font
					(size 1.27 1.27)
				)
				(hide yes)
			)
		)
		(property "LCSC" ""
			(at 115.57 60.96 0)
			(effects
				(font
					(size 1.27 1.27)
				)
				(hide yes)
			)
		)
		(property "tolerance" "5%"
			(at 115.57 60.96 0)
			(effects
				(font
					(size 1.27 1.27)
				)
				(hide yes)
			)
		)
		(property "voltage" ""
			(at 115.57 60.96 0)
			(effects
				(font
					(size 1.27 1.27)
				)
				(hide yes)
			)
		)
		(property "power" "125 mW"
			(at 115.57 60.96 0)
			(effects
				(font
					(size 1.27 1.27)
				)
				(hide yes)
			)
		)
		(property "temp_coef" ""
			(at 115.57 60.96 0)
			(effects
				(font
					(size 1.27 1.27)
				)
				(hide yes)
			)
		)
		(property "package" ""
			(at 115.57 60.96 0)
			(effects
				(font
					(size 1.27 1.27)
				)
				(hide yes)
			)
		)
		(pin "2"
			(uuid "cc25e6bf-989a-434a-809f-d4c233f1b91e")
		)
		(pin "1"
			(uuid "6186301b-c7c7-40d4-a73e-df96a0ec7db0")
		)
		(instances
			(project "world"
				(path "/ffcfa3ff-e6a8-4865-934e-8ce49f298d00/052b5f82-543f-428b-b324-d980e3eeceda"
					(reference "R2")
					(unit 1)
				)
			)
		)
	)
	(symbol
		(lib_id "power:GND")
		(at 97.79 71.12 0)
		(unit 1)
		(exclude_from_sim no)
		(in_bom yes)
		(on_board yes)
		(dnp no)
		(uuid "a041b2a9-13f0-4657-a721-e40db4a83ce1")
		(property "Reference" "#PWR02002"
			(at 97.79 77.47 0)
			(effects
				(font
					(size 1.27 1.27)
				)
				(hide yes)
			)
		)
		(property "Value" "GND"
			(at 97.79 74.93 0)
			(effects
				(font
					(size 1.27 1.27)
				)
			)
		)
		(property "Footprint" ""
			(at 97.79 71.12 0)
			(effects
				(font
					(size 1.27 1.27)
				)
				(hide yes)
			)
		)
		(property "Datasheet" ""
			(at 97.79 71.12 0)
			(effects
				(font
					(size 1.27 1.27)
				)
				(hide yes)
			)
		)
		(property "Description" "Power symbol creates a global label with name \"GND\" , ground"
			(at 97.79 71.12 0)
			(effects
				(font
					(size 1.27 1.27)
				)
				(hide yes)
			)
		)
		(property "LCSC" ""
			(at 97.79 71.12 0)
			(effects
				(font
					(size 1.27 1.27)
				)
				(hide yes)
			)
		)
		(property "tolerance" ""
			(at 97.79 71.12 0)
			(effects
				(font
					(size 1.27 1.27)
				)
				(hide yes)
			)
		)
		(property "voltage" ""
			(at 97.79 71.12 0)
			(effects
				(font
					(size 1.27 1.27)
				)
				(hide yes)
			)
		)
		(property "power" ""
			(at 97.79 71.12 0)
			(effects
				(font
					(size 1.27 1.27)
				)
				(hide yes)
			)
		)
		(property "temp_coef" ""
			(at 97.79 71.12 0)
			(effects
				(font
					(size 1.27 1.27)
				)
				(hide yes)
			)
		)
		(property "package" ""
			(at 97.79 71.12 0)
			(effects
				(font
					(size 1.27 1.27)
				)
				(hide yes)
			)
		)
		(pin "1"
			(uuid "2b9fa604-29ff-41dc-b416-f7c31aba0274")
		)
		(instances
			(project "world"
				(path "/ffcfa3ff-e6a8-4865-934e-8ce49f298d00/052b5f82-543f-428b-b324-d980e3eeceda"
					(reference "#PWR02002")
					(unit 1)
				)
			)
		)
	)
	(symbol
		(lib_id "power:+3V0")
		(at 97.79 40.64 0)
		(unit 1)
		(exclude_from_sim no)
		(in_bom yes)
		(on_board yes)
		(dnp no)
		(fields_autoplaced yes)
		(uuid "ec4f2f9a-f1e5-4cf9-b865-7f851ad87f1b")
		(property "Reference" "#PWR02001"
			(at 97.79 44.45 0)
			(effects
				(font
					(size 1.27 1.27)
				)
				(hide yes)
			)
		)
		(property "Value" "+3V0"
			(at 97.79 35.56 0)
			(effects
				(font
					(size 1.27 1.27)
				)
			)
		)
		(property "Footprint" ""
			(at 97.79 40.64 0)
			(effects
				(font
					(size 1.27 1.27)
				)
				(hide yes)
			)
		)
		(property "Datasheet" ""
			(at 97.79 40.64 0)
			(effects
				(font
					(size 1.27 1.27)
				)
				(hide yes)
			)
		)
		(property "Description" "Power symbol creates a global label with name \"+3V0\""
			(at 97.79 40.64 0)
			(effects
				(font
					(size 1.27 1.27)
				)
				(hide yes)
			)
		)
		(property "LCSC" ""
			(at 97.79 40.64 0)
			(effects
				(font
					(size 1.27 1.27)
				)
				(hide yes)
			)
		)
		(property "tolerance" ""
			(at 97.79 40.64 0)
			(effects
				(font
					(size 1.27 1.27)
				)
				(hide yes)
			)
		)
		(property "voltage" ""
			(at 97.79 40.64 0)
			(effects
				(font
					(size 1.27 1.27)
				)
				(hide yes)
			)
		)
		(property "power" ""
			(at 97.79 40.64 0)
			(effects
				(font
					(size 1.27 1.27)
				)
				(hide yes)
			)
		)
		(property "temp_coef" ""
			(at 97.79 40.64 0)
			(effects
				(font
					(size 1.27 1.27)
				)
				(hide yes)
			)
		)
		(property "package" ""
			(at 97.79 40.64 0)
			(effects
				(font
					(size 1.27 1.27)
				)
				(hide yes)
			)
		)
		(pin "1"
			(uuid "a962aaea-b7fa-456d-96b1-c649a280f749")
		)
		(instances
			(project "world"
				(path "/ffcfa3ff-e6a8-4865-934e-8ce49f298d00/052b5f82-543f-428b-b324-d980e3eeceda"
					(reference "#PWR02001")
					(unit 1)
				)
			)
		)
	)
)
