ISO-10303-21;
HEADER;
/* CP_Elec_5x3.step 3D STEP model for use in ECAD systems
 * Copyright (C) 2018, kicad StepUp
 *
 * This work is licensed under the [Creative Commons CC-BY-SA 4.0 License](https://creativecommons.org/licenses/by-sa/4.0/legalcode),
 * with the following exception:
 * To the extent that the creation of electronic designs that use 'Licensed Material' can be considered to be 'Adapted Material',
 * then the copyright holder waives article 3 of the license with respect to these designs and any generated files which use data provided
 * as part of the 'Licensed Material'.
 * You are free to use the library data in your own projects without the obligation to share your project files under this or any other license agreement.
 * However, if you wish to redistribute these libraries, or parts thereof (including in modified form) as a collection then the exception above does not apply.
 * Please refer to https://github.com/KiCad/kicad-packages3D/blob/master/LICENSE.md for further clarification of the exception.
 * Disclaimer of Warranties and Limitation of Liability.
 * These libraries are provided in the hope that they will be useful, but are provided without warranty of any kind, express or implied.
 * *USE 3D CAD DATA AT YOUR OWN RISK*
 * *DO NOT RELY UPON ANY INFORMATION FOUND HERE WITHOUT INDEPENDENT VERIFICATION.*
 *
 */

FILE_DESCRIPTION(
/* description */ ('model of CP_Elec_5x3'),
/* implementation_level */ '2;1');

FILE_NAME(
/* name */ 'CP_Elec_5x3.step',
/* time_stamp */ '2018-06-25T02:14:25',
/* author */ ('kicad StepUp','ksu'),
/* organization */ ('FreeCAD'),
/* preprocessor_version */ 'OCC',
/* originating_system */ 'kicad StepUp',
/* authorisation */ '');

FILE_SCHEMA(('AUTOMOTIVE_DESIGN { 1 0 10303 214 1 1 1 1 }'));
ENDSEC;

DATA;
#1 = APPLICATION_PROTOCOL_DEFINITION('international standard',
'automotive_design',2000,#2);
#2 = APPLICATION_CONTEXT(
'core data for automotive mechanical design processes');
#3 = SHAPE_DEFINITION_REPRESENTATION(#4,#10);
#4 = PRODUCT_DEFINITION_SHAPE('','',#5);
#5 = PRODUCT_DEFINITION('design','',#6,#9);
#6 = PRODUCT_DEFINITION_FORMATION('','',#7);
#7 = PRODUCT('CP_Elec_5x3','CP_Elec_5x3','',(#8));
#8 = PRODUCT_CONTEXT('',#2,'mechanical');
#9 = PRODUCT_DEFINITION_CONTEXT('part definition',#2,'design');
#10 = ADVANCED_BREP_SHAPE_REPRESENTATION('',(#11,#15),#1368);
#11 = AXIS2_PLACEMENT_3D('',#12,#13,#14);
#12 = CARTESIAN_POINT('',(0.,0.,0.));
#13 = DIRECTION('',(0.,0.,1.));
#14 = DIRECTION('',(1.,0.,-0.));
#15 = MANIFOLD_SOLID_BREP('',#16);
#16 = CLOSED_SHELL('',(#17,#60,#86,#159,#238,#278,#357,#382,#407,#463,
#519,#544,#569,#634,#707,#793,#810,#841,#853,#870,#882,#900,#912,
#930,#942,#973,#1025,#1057,#1082,#1107,#1139,#1164,#1189,#1206,#1223
,#1265,#1300,#1318,#1330,#1342,#1358));
#17 = ADVANCED_FACE('',(#18),#55,.T.);
#18 = FACE_BOUND('',#19,.F.);
#19 = EDGE_LOOP('',(#20,#30,#37,#38));
#20 = ORIENTED_EDGE('',*,*,#21,.F.);
#21 = EDGE_CURVE('',#22,#24,#26,.T.);
#22 = VERTEX_POINT('',#23);
#23 = CARTESIAN_POINT('',(-2.5,3.061616997868E-16,0.983333333333));
#24 = VERTEX_POINT('',#25);
#25 = CARTESIAN_POINT('',(-2.5,3.061616997868E-16,1.135683232748));
#26 = LINE('',#27,#28);
#27 = CARTESIAN_POINT('',(-2.5,3.061616997868E-16,0.65));
#28 = VECTOR('',#29,1.);
#29 = DIRECTION('',(0.,0.,1.));
#30 = ORIENTED_EDGE('',*,*,#31,.T.);
#31 = EDGE_CURVE('',#22,#22,#32,.T.);
#32 = CIRCLE('',#33,2.5);
#33 = AXIS2_PLACEMENT_3D('',#34,#35,#36);
#34 = CARTESIAN_POINT('',(0.,0.,0.983333333333));
#35 = DIRECTION('',(0.,0.,-1.));
#36 = DIRECTION('',(-1.,1.224646799147E-16,0.));
#37 = ORIENTED_EDGE('',*,*,#21,.T.);
#38 = ORIENTED_EDGE('',*,*,#39,.F.);
#39 = EDGE_CURVE('',#24,#24,#40,.T.);
#40 = ( BOUNDED_CURVE() B_SPLINE_CURVE(13,(#41,#42,#43,#44,#45,#46,#47,
#48,#49,#50,#51,#52,#53,#54),.UNSPECIFIED.,.T.,.F.)
B_SPLINE_CURVE_WITH_KNOTS((14,14),(3.106555508923E-16,15.707963267949),
.PIECEWISE_BEZIER_KNOTS.) CURVE() GEOMETRIC_REPRESENTATION_ITEM()
RATIONAL_B_SPLINE_CURVE((1.,1.,1.000000000001,0.999999999997,
1.000000000006,0.99999999999,1.000000000011,0.99999999999,
1.000000000008,0.999999999995,1.000000000002,0.999999999999,1.,1.))
REPRESENTATION_ITEM('') );
#41 = CARTESIAN_POINT('',(-2.5,3.061616997868E-16,1.135683232748));
#42 = CARTESIAN_POINT('',(-2.500000000002,1.190825886764,1.135683232748)
);
#43 = CARTESIAN_POINT('',(-1.884541892295,2.409113115869,1.135683232748)
);
#44 = CARTESIAN_POINT('',(-0.618015285826,3.280240320887,1.135683232748)
);
#45 = CARTESIAN_POINT('',(1.124886085405,3.414028857856,1.135683232748)
);
#46 = CARTESIAN_POINT('',(2.630545419371,2.485545151042,1.135683232749)
);
#47 = CARTESIAN_POINT('',(3.734788378759,1.130166370702,1.135683232748)
);
#48 = CARTESIAN_POINT('',(3.73478837877,-1.130166370727,1.135683232749)
);
#49 = CARTESIAN_POINT('',(2.630545419382,-2.485545150998,1.135683232748)
);
#50 = CARTESIAN_POINT('',(1.124886085382,-3.414028857895,1.135683232749)
);
#51 = CARTESIAN_POINT('',(-0.618015285805,-3.280240320868,1.135683232748
));
#52 = CARTESIAN_POINT('',(-1.884541892306,-2.409113115874,1.135683232748
));
#53 = CARTESIAN_POINT('',(-2.499999999999,-1.190825886764,1.135683232748
));
#54 = CARTESIAN_POINT('',(-2.5,-3.061616997868E-16,1.135683232748));
#55 = CYLINDRICAL_SURFACE('',#56,2.5);
#56 = AXIS2_PLACEMENT_3D('',#57,#58,#59);
#57 = CARTESIAN_POINT('',(0.,0.,0.65));
#58 = DIRECTION('',(0.,0.,1.));
#59 = DIRECTION('',(-1.,1.224646799147E-16,0.));
#60 = ADVANCED_FACE('',(#61),#81,.T.);
#61 = FACE_BOUND('',#62,.T.);
#62 = EDGE_LOOP('',(#63,#64,#73,#80));
#63 = ORIENTED_EDGE('',*,*,#31,.T.);
#64 = ORIENTED_EDGE('',*,*,#65,.T.);
#65 = EDGE_CURVE('',#22,#66,#68,.T.);
#66 = VERTEX_POINT('',#67);
#67 = CARTESIAN_POINT('',(-2.166666666667,2.653401398153E-16,0.65));
#68 = CIRCLE('',#69,0.333333333333);
#69 = AXIS2_PLACEMENT_3D('',#70,#71,#72);
#70 = CARTESIAN_POINT('',(-2.166666666667,2.653401398153E-16,
0.983333333333));
#71 = DIRECTION('',(-1.224646799147E-16,-1.,-0.));
#72 = DIRECTION('',(-1.,1.224646799147E-16,0.));
#73 = ORIENTED_EDGE('',*,*,#74,.F.);
#74 = EDGE_CURVE('',#66,#66,#75,.T.);
#75 = CIRCLE('',#76,2.166666666667);
#76 = AXIS2_PLACEMENT_3D('',#77,#78,#79);
#77 = CARTESIAN_POINT('',(0.,0.,0.65));
#78 = DIRECTION('',(0.,0.,-1.));
#79 = DIRECTION('',(-1.,1.224646799147E-16,0.));
#80 = ORIENTED_EDGE('',*,*,#65,.F.);
#81 = TOROIDAL_SURFACE('',#82,2.166666666667,0.333333333333);
#82 = AXIS2_PLACEMENT_3D('',#83,#84,#85);
#83 = CARTESIAN_POINT('',(0.,0.,0.983333333333));
#84 = DIRECTION('',(0.,0.,-1.));
#85 = DIRECTION('',(-1.,1.224646799147E-16,0.));
#86 = ADVANCED_FACE('',(#87),#116,.T.);
#87 = FACE_BOUND('',#88,.T.);
#88 = EDGE_LOOP('',(#89,#97,#114,#115));
#89 = ORIENTED_EDGE('',*,*,#90,.T.);
#90 = EDGE_CURVE('',#24,#91,#93,.T.);
#91 = VERTEX_POINT('',#92);
#92 = CARTESIAN_POINT('',(-2.486363636364,3.044917268789E-16,
1.15062112068));
#93 = ( BOUNDED_CURVE() B_SPLINE_CURVE(2,(#94,#95,#96),.UNSPECIFIED.,.F.
,.F.) B_SPLINE_CURVE_WITH_KNOTS((3,3),(0.,15.707963267949),
.PIECEWISE_BEZIER_KNOTS.) CURVE() GEOMETRIC_REPRESENTATION_ITEM()
RATIONAL_B_SPLINE_CURVE((1.,0.738548945876,1.)) REPRESENTATION_ITEM('')
);
#94 = CARTESIAN_POINT('',(-2.5,3.061616997868E-16,1.135683232748));
#95 = CARTESIAN_POINT('',(-2.5,-1.478435076124E-15,1.149376296686));
#96 = CARTESIAN_POINT('',(-2.486363636364,3.044917268789E-16,
1.15062112068));
#97 = ORIENTED_EDGE('',*,*,#98,.T.);
#98 = EDGE_CURVE('',#91,#91,#99,.T.);
#99 = ( BOUNDED_CURVE() B_SPLINE_CURVE(13,(#100,#101,#102,#103,#104,#105
,#106,#107,#108,#109,#110,#111,#112,#113),.UNSPECIFIED.,.T.,.F.)
B_SPLINE_CURVE_WITH_KNOTS((14,14),(3.106555508923E-16,15.707963267949),
.PIECEWISE_BEZIER_KNOTS.) CURVE() GEOMETRIC_REPRESENTATION_ITEM()
RATIONAL_B_SPLINE_CURVE((1.,1.,1.000000000001,0.999999999997,
1.000000000006,0.99999999999,1.000000000011,0.99999999999,
1.000000000008,0.999999999995,1.000000000002,0.999999999999,1.,1.))
REPRESENTATION_ITEM('') );
#100 = CARTESIAN_POINT('',(-2.486363636364,3.044917268789E-16,
1.15062112068));
#101 = CARTESIAN_POINT('',(-2.486363636365,1.184330472836,1.15062112068)
);
#102 = CARTESIAN_POINT('',(-1.874262572883,2.395972498874,1.15062112068)
);
#103 = CARTESIAN_POINT('',(-0.614644293359,3.262348100953,1.15062112068)
);
#104 = CARTESIAN_POINT('',(1.118750343122,3.395406882271,1.15062112068)
);
#105 = CARTESIAN_POINT('',(2.616196989809,2.471987632033,1.15062112068)
);
#106 = CARTESIAN_POINT('',(3.714416805786,1.124001826866,1.150621120681)
);
#107 = CARTESIAN_POINT('',(3.714416805792,-1.12400182689,1.15062112068)
);
#108 = CARTESIAN_POINT('',(2.616196989824,-2.471987631991,1.15062112068)
);
#109 = CARTESIAN_POINT('',(1.118750343096,-3.395406882307,1.15062112068)
);
#110 = CARTESIAN_POINT('',(-0.614644293336,-3.262348100936,1.15062112068
));
#111 = CARTESIAN_POINT('',(-1.874262572893,-2.395972498879,1.15062112068
));
#112 = CARTESIAN_POINT('',(-2.486363636363,-1.184330472836,1.15062112068
));
#113 = CARTESIAN_POINT('',(-2.486363636364,-3.044917268789E-16,
1.15062112068));
#114 = ORIENTED_EDGE('',*,*,#90,.F.);
#115 = ORIENTED_EDGE('',*,*,#39,.F.);
#116 = ( BOUNDED_SURFACE() B_SPLINE_SURFACE(2,13,(
(#117,#118,#119,#120,#121,#122,#123,#124,#125,#126,#127,#128,#129
,#130)
,(#131,#132,#133,#134,#135,#136,#137,#138,#139,#140,#141,#142,#143
,#144)
,(#145,#146,#147,#148,#149,#150,#151,#152,#153,#154,#155,#156,#157
,#158
)),.UNSPECIFIED.,.F.,.T.,.F.) B_SPLINE_SURFACE_WITH_KNOTS((3,3),(14,
14),(0.,15.707963267949),(3.106555508923E-16,15.707963267949),
.PIECEWISE_BEZIER_KNOTS.) GEOMETRIC_REPRESENTATION_ITEM()
RATIONAL_B_SPLINE_SURFACE((
(1.,1.,1.000000000001,0.999999999997,1.000000000006,0.99999999999
,1.000000000011,0.99999999999,1.000000000008,0.999999999995
,1.000000000002,0.999999999999,1.,1.)
,(0.738548945876,0.738548945876,0.738548945877,0.738548945873
,0.738548945883,0.738548945866,0.738548945888,0.738548945864
,0.738548945885,0.738548945871,0.738548945879,0.738548945875
,0.738548945876,0.738548945876)
,(1.,1.,1.000000000001,0.999999999997,1.000000000006,0.99999999999
,1.000000000011,0.99999999999,1.000000000008,0.999999999995
,1.000000000002,0.999999999999,1.,1.
))) REPRESENTATION_ITEM('') SURFACE() );
#117 = CARTESIAN_POINT('',(-2.5,3.061616997868E-16,1.135683232748));
#118 = CARTESIAN_POINT('',(-2.500000000002,1.190825886764,1.135683232748
));
#119 = CARTESIAN_POINT('',(-1.884541892295,2.409113115869,1.135683232748
));
#120 = CARTESIAN_POINT('',(-0.618015285826,3.280240320887,1.135683232748
));
#121 = CARTESIAN_POINT('',(1.124886085405,3.414028857856,1.135683232748)
);
#122 = CARTESIAN_POINT('',(2.630545419371,2.485545151042,1.135683232749)
);
#123 = CARTESIAN_POINT('',(3.734788378759,1.130166370702,1.135683232748)
);
#124 = CARTESIAN_POINT('',(3.73478837877,-1.130166370727,1.135683232749)
);
#125 = CARTESIAN_POINT('',(2.630545419382,-2.485545150998,1.135683232748
));
#126 = CARTESIAN_POINT('',(1.124886085382,-3.414028857895,1.135683232749
));
#127 = CARTESIAN_POINT('',(-0.618015285805,-3.280240320868,
1.135683232748));
#128 = CARTESIAN_POINT('',(-1.884541892306,-2.409113115874,
1.135683232748));
#129 = CARTESIAN_POINT('',(-2.499999999999,-1.190825886764,
1.135683232748));
#130 = CARTESIAN_POINT('',(-2.5,-3.061616997868E-16,1.135683232748));
#131 = CARTESIAN_POINT('',(-2.5,-1.478435076124E-15,1.149376296686));
#132 = CARTESIAN_POINT('',(-2.500000000002,1.190825886764,1.149376296686
));
#133 = CARTESIAN_POINT('',(-1.884541892295,2.409113115868,1.149376296686
));
#134 = CARTESIAN_POINT('',(-0.618015285825,3.28024032089,1.149376296686)
);
#135 = CARTESIAN_POINT('',(1.124886085397,3.414028857848,1.149376296686)
);
#136 = CARTESIAN_POINT('',(2.63054541939,2.485545151051,1.149376296686)
);
#137 = CARTESIAN_POINT('',(3.73478837873,1.130166370698,1.149376296686)
);
#138 = CARTESIAN_POINT('',(3.734788378799,-1.130166370735,1.149376296686
));
#139 = CARTESIAN_POINT('',(2.630545419363,-2.485545150986,1.149376296686
));
#140 = CARTESIAN_POINT('',(1.124886085389,-3.414028857905,1.149376296686
));
#141 = CARTESIAN_POINT('',(-0.618015285807,-3.280240320864,
1.149376296686));
#142 = CARTESIAN_POINT('',(-1.884541892306,-2.409113115875,
1.149376296686));
#143 = CARTESIAN_POINT('',(-2.499999999999,-1.190825886764,
1.149376296686));
#144 = CARTESIAN_POINT('',(-2.5,2.299792654553E-15,1.149376296686));
#145 = CARTESIAN_POINT('',(-2.486363636364,3.044917268789E-16,
1.15062112068));
#146 = CARTESIAN_POINT('',(-2.486363636365,1.184330472836,1.15062112068)
);
#147 = CARTESIAN_POINT('',(-1.874262572883,2.395972498874,1.15062112068)
);
#148 = CARTESIAN_POINT('',(-0.614644293359,3.262348100953,1.15062112068)
);
#149 = CARTESIAN_POINT('',(1.118750343122,3.395406882271,1.15062112068)
);
#150 = CARTESIAN_POINT('',(2.616196989809,2.471987632033,1.15062112068)
);
#151 = CARTESIAN_POINT('',(3.714416805786,1.124001826866,1.150621120681)
);
#152 = CARTESIAN_POINT('',(3.714416805792,-1.12400182689,1.15062112068)
);
#153 = CARTESIAN_POINT('',(2.616196989824,-2.471987631991,1.15062112068)
);
#154 = CARTESIAN_POINT('',(1.118750343096,-3.395406882307,1.15062112068)
);
#155 = CARTESIAN_POINT('',(-0.614644293336,-3.262348100936,1.15062112068
));
#156 = CARTESIAN_POINT('',(-1.874262572893,-2.395972498879,1.15062112068
));
#157 = CARTESIAN_POINT('',(-2.486363636363,-1.184330472836,1.15062112068
));
#158 = CARTESIAN_POINT('',(-2.486363636364,-3.044917268789E-16,
1.15062112068));
#159 = ADVANCED_FACE('',(#160,#230),#233,.T.);
#160 = FACE_BOUND('',#161,.T.);
#161 = EDGE_LOOP('',(#162,#172,#181,#189,#198,#206,#215,#223));
#162 = ORIENTED_EDGE('',*,*,#163,.T.);
#163 = EDGE_CURVE('',#164,#166,#168,.T.);
#164 = VERTEX_POINT('',#165);
#165 = CARTESIAN_POINT('',(-2.65,0.517204021639,0.65));
#166 = VERTEX_POINT('',#167);
#167 = CARTESIAN_POINT('',(-2.65,-0.517204021639,0.65));
#168 = LINE('',#169,#170);
#169 = CARTESIAN_POINT('',(-2.65,0.825,0.65));
#170 = VECTOR('',#171,1.);
#171 = DIRECTION('',(-1.224646799147E-16,-1.,0.));
#172 = ORIENTED_EDGE('',*,*,#173,.T.);
#173 = EDGE_CURVE('',#166,#174,#176,.T.);
#174 = VERTEX_POINT('',#175);
#175 = CARTESIAN_POINT('',(-0.517204021639,-2.65,0.65));
#176 = CIRCLE('',#177,2.7);
#177 = AXIS2_PLACEMENT_3D('',#178,#179,#180);
#178 = CARTESIAN_POINT('',(0.,0.,0.65));
#179 = DIRECTION('',(0.,0.,1.));
#180 = DIRECTION('',(-1.,1.224646799147E-16,0.));
#181 = ORIENTED_EDGE('',*,*,#182,.T.);
#182 = EDGE_CURVE('',#174,#183,#185,.T.);
#183 = VERTEX_POINT('',#184);
#184 = CARTESIAN_POINT('',(0.517204021639,-2.65,0.65));
#185 = LINE('',#186,#187);
#186 = CARTESIAN_POINT('',(-0.825,-2.65,0.65));
#187 = VECTOR('',#188,1.);
#188 = DIRECTION('',(1.,-1.224646799147E-16,0.));
#189 = ORIENTED_EDGE('',*,*,#190,.T.);
#190 = EDGE_CURVE('',#183,#191,#193,.T.);
#191 = VERTEX_POINT('',#192);
#192 = CARTESIAN_POINT('',(2.65,-0.517204021639,0.65));
#193 = CIRCLE('',#194,2.7);
#194 = AXIS2_PLACEMENT_3D('',#195,#196,#197);
#195 = CARTESIAN_POINT('',(0.,0.,0.65));
#196 = DIRECTION('',(0.,0.,1.));
#197 = DIRECTION('',(-1.,1.224646799147E-16,0.));
#198 = ORIENTED_EDGE('',*,*,#199,.T.);
#199 = EDGE_CURVE('',#191,#200,#202,.T.);
#200 = VERTEX_POINT('',#201);
#201 = CARTESIAN_POINT('',(2.65,0.517204021639,0.65));
#202 = LINE('',#203,#204);
#203 = CARTESIAN_POINT('',(2.65,-1.325,0.65));
#204 = VECTOR('',#205,1.);
#205 = DIRECTION('',(1.224646799147E-16,1.,0.));
#206 = ORIENTED_EDGE('',*,*,#207,.T.);
#207 = EDGE_CURVE('',#200,#208,#210,.T.);
#208 = VERTEX_POINT('',#209);
#209 = CARTESIAN_POINT('',(0.517204021639,2.65,0.65));
#210 = CIRCLE('',#211,2.7);
#211 = AXIS2_PLACEMENT_3D('',#212,#213,#214);
#212 = CARTESIAN_POINT('',(0.,0.,0.65));
#213 = DIRECTION('',(0.,0.,1.));
#214 = DIRECTION('',(-1.,1.224646799147E-16,0.));
#215 = ORIENTED_EDGE('',*,*,#216,.T.);
#216 = EDGE_CURVE('',#208,#217,#219,.T.);
#217 = VERTEX_POINT('',#218);
#218 = CARTESIAN_POINT('',(-0.517204021639,2.65,0.65));
#219 = LINE('',#220,#221);
#220 = CARTESIAN_POINT('',(1.325,2.65,0.65));
#221 = VECTOR('',#222,1.);
#222 = DIRECTION('',(-1.,1.224646799147E-16,0.));
#223 = ORIENTED_EDGE('',*,*,#224,.T.);
#224 = EDGE_CURVE('',#217,#164,#225,.T.);
#225 = CIRCLE('',#226,2.7);
#226 = AXIS2_PLACEMENT_3D('',#227,#228,#229);
#227 = CARTESIAN_POINT('',(0.,0.,0.65));
#228 = DIRECTION('',(0.,0.,1.));
#229 = DIRECTION('',(-1.,1.224646799147E-16,0.));
#230 = FACE_BOUND('',#231,.T.);
#231 = EDGE_LOOP('',(#232));
#232 = ORIENTED_EDGE('',*,*,#74,.T.);
#233 = PLANE('',#234);
#234 = AXIS2_PLACEMENT_3D('',#235,#236,#237);
#235 = CARTESIAN_POINT('',(1.26614827087E-16,-2.696262693377E-16,0.65));
#236 = DIRECTION('',(0.,0.,1.));
#237 = DIRECTION('',(-1.,1.224646799147E-16,0.));
#238 = ADVANCED_FACE('',(#239),#269,.F.);
#239 = FACE_BOUND('',#240,.F.);
#240 = EDGE_LOOP('',(#241,#250,#251,#252));
#241 = ORIENTED_EDGE('',*,*,#242,.F.);
#242 = EDGE_CURVE('',#91,#243,#245,.T.);
#243 = VERTEX_POINT('',#244);
#244 = CARTESIAN_POINT('',(-2.486363636364,3.044917268789E-16,
1.44937887932));
#245 = CIRCLE('',#246,0.15);
#246 = AXIS2_PLACEMENT_3D('',#247,#248,#249);
#247 = CARTESIAN_POINT('',(-2.5,3.061616997868E-16,1.3));
#248 = DIRECTION('',(-1.224646799147E-16,-1.,-0.));
#249 = DIRECTION('',(0.,0.,-1.));
#250 = ORIENTED_EDGE('',*,*,#98,.T.);
#251 = ORIENTED_EDGE('',*,*,#242,.T.);
#252 = ORIENTED_EDGE('',*,*,#253,.F.);
#253 = EDGE_CURVE('',#243,#243,#254,.T.);
#254 = ( BOUNDED_CURVE() B_SPLINE_CURVE(13,(#255,#256,#257,#258,#259,
#260,#261,#262,#263,#264,#265,#266,#267,#268),.UNSPECIFIED.,.T.,.F.)
B_SPLINE_CURVE_WITH_KNOTS((14,14),(3.106555508923E-16,15.707963267949),
.PIECEWISE_BEZIER_KNOTS.) CURVE() GEOMETRIC_REPRESENTATION_ITEM()
RATIONAL_B_SPLINE_CURVE((1.,1.,1.000000000001,0.999999999997,
1.000000000006,0.99999999999,1.000000000011,0.99999999999,
1.000000000008,0.999999999995,1.000000000002,0.999999999999,1.,1.))
REPRESENTATION_ITEM('') );
#255 = CARTESIAN_POINT('',(-2.486363636364,3.044917268789E-16,
1.44937887932));
#256 = CARTESIAN_POINT('',(-2.486363636365,1.184330472836,1.44937887932)
);
#257 = CARTESIAN_POINT('',(-1.874262572885,2.395972498874,1.44937887932)
);
#258 = CARTESIAN_POINT('',(-0.614644293354,3.262348100952,1.44937887932)
);
#259 = CARTESIAN_POINT('',(1.118750343112,3.395406882273,1.44937887932)
);
#260 = CARTESIAN_POINT('',(2.616196989824,2.471987632029,1.44937887932)
);
#261 = CARTESIAN_POINT('',(3.714416805769,1.124001826872,1.44937887932)
);
#262 = CARTESIAN_POINT('',(3.714416805809,-1.124001826896,1.44937887932)
);
#263 = CARTESIAN_POINT('',(2.616196989811,-2.471987631985,1.44937887932)
);
#264 = CARTESIAN_POINT('',(1.118750343104,-3.395406882312,1.44937887932)
);
#265 = CARTESIAN_POINT('',(-0.61464429334,-3.262348100933,1.44937887932)
);
#266 = CARTESIAN_POINT('',(-1.874262572892,-2.395972498879,1.44937887932
));
#267 = CARTESIAN_POINT('',(-2.486363636363,-1.184330472836,1.44937887932
));
#268 = CARTESIAN_POINT('',(-2.486363636364,-3.044917268789E-16,
1.44937887932));
#269 = SURFACE_OF_REVOLUTION('',#270,#275);
#270 = CIRCLE('',#271,0.15);
#271 = AXIS2_PLACEMENT_3D('',#272,#273,#274);
#272 = CARTESIAN_POINT('',(-2.5,3.061616997868E-16,1.3));
#273 = DIRECTION('',(-1.224646799147E-16,-1.,-0.));
#274 = DIRECTION('',(0.,0.,-1.));
#275 = AXIS1_PLACEMENT('',#276,#277);
#276 = CARTESIAN_POINT('',(0.,0.,0.65));
#277 = DIRECTION('',(-0.,0.,-1.));
#278 = ADVANCED_FACE('',(#279),#352,.F.);
#279 = FACE_BOUND('',#280,.F.);
#280 = EDGE_LOOP('',(#281,#291,#299,#307,#313,#314,#322,#330,#338,#346)
);
#281 = ORIENTED_EDGE('',*,*,#282,.F.);
#282 = EDGE_CURVE('',#283,#285,#287,.T.);
#283 = VERTEX_POINT('',#284);
#284 = CARTESIAN_POINT('',(-2.65,1.65,0.15));
#285 = VERTEX_POINT('',#286);
#286 = CARTESIAN_POINT('',(-2.65,0.325,0.15));
#287 = LINE('',#288,#289);
#288 = CARTESIAN_POINT('',(-2.65,1.65,0.15));
#289 = VECTOR('',#290,1.);
#290 = DIRECTION('',(-1.224646799147E-16,-1.,0.));
#291 = ORIENTED_EDGE('',*,*,#292,.T.);
#292 = EDGE_CURVE('',#283,#293,#295,.T.);
#293 = VERTEX_POINT('',#294);
#294 = CARTESIAN_POINT('',(-2.65,1.65,0.85));
#295 = LINE('',#296,#297);
#296 = CARTESIAN_POINT('',(-2.65,1.65,0.15));
#297 = VECTOR('',#298,1.);
#298 = DIRECTION('',(0.,0.,1.));
#299 = ORIENTED_EDGE('',*,*,#300,.T.);
#300 = EDGE_CURVE('',#293,#301,#303,.T.);
#301 = VERTEX_POINT('',#302);
#302 = CARTESIAN_POINT('',(-2.65,0.517204021639,0.85));
#303 = LINE('',#304,#305);
#304 = CARTESIAN_POINT('',(-2.65,2.65,0.85));
#305 = VECTOR('',#306,1.);
#306 = DIRECTION('',(-1.224646799147E-16,-1.,0.));
#307 = ORIENTED_EDGE('',*,*,#308,.T.);
#308 = EDGE_CURVE('',#301,#164,#309,.T.);
#309 = LINE('',#310,#311);
#310 = CARTESIAN_POINT('',(-2.65,0.517204021639,0.65));
#311 = VECTOR('',#312,1.);
#312 = DIRECTION('',(0.,0.,-1.));
#313 = ORIENTED_EDGE('',*,*,#163,.T.);
#314 = ORIENTED_EDGE('',*,*,#315,.F.);
#315 = EDGE_CURVE('',#316,#166,#318,.T.);
#316 = VERTEX_POINT('',#317);
#317 = CARTESIAN_POINT('',(-2.65,-0.517204021639,0.85));
#318 = LINE('',#319,#320);
#319 = CARTESIAN_POINT('',(-2.65,-0.517204021639,0.65));
#320 = VECTOR('',#321,1.);
#321 = DIRECTION('',(0.,0.,-1.));
#322 = ORIENTED_EDGE('',*,*,#323,.T.);
#323 = EDGE_CURVE('',#316,#324,#326,.T.);
#324 = VERTEX_POINT('',#325);
#325 = CARTESIAN_POINT('',(-2.65,-1.65,0.85));
#326 = LINE('',#327,#328);
#327 = CARTESIAN_POINT('',(-2.65,2.65,0.85));
#328 = VECTOR('',#329,1.);
#329 = DIRECTION('',(-1.224646799147E-16,-1.,0.));
#330 = ORIENTED_EDGE('',*,*,#331,.F.);
#331 = EDGE_CURVE('',#332,#324,#334,.T.);
#332 = VERTEX_POINT('',#333);
#333 = CARTESIAN_POINT('',(-2.65,-1.65,0.15));
#334 = LINE('',#335,#336);
#335 = CARTESIAN_POINT('',(-2.65,-1.65,0.15));
#336 = VECTOR('',#337,1.);
#337 = DIRECTION('',(0.,0.,1.));
#338 = ORIENTED_EDGE('',*,*,#339,.F.);
#339 = EDGE_CURVE('',#340,#332,#342,.T.);
#340 = VERTEX_POINT('',#341);
#341 = CARTESIAN_POINT('',(-2.65,-0.325,0.15));
#342 = LINE('',#343,#344);
#343 = CARTESIAN_POINT('',(-2.65,1.65,0.15));
#344 = VECTOR('',#345,1.);
#345 = DIRECTION('',(-1.224646799147E-16,-1.,0.));
#346 = ORIENTED_EDGE('',*,*,#347,.F.);
#347 = EDGE_CURVE('',#285,#340,#348,.T.);
#348 = LINE('',#349,#350);
#349 = CARTESIAN_POINT('',(-2.65,1.65,0.15));
#350 = VECTOR('',#351,1.);
#351 = DIRECTION('',(-1.224646799147E-16,-1.,0.));
#352 = PLANE('',#353);
#353 = AXIS2_PLACEMENT_3D('',#354,#355,#356);
#354 = CARTESIAN_POINT('',(-2.65,1.65,0.15));
#355 = DIRECTION('',(1.,-1.224646799147E-16,0.));
#356 = DIRECTION('',(-1.224646799147E-16,-1.,0.));
#357 = ADVANCED_FACE('',(#358),#377,.F.);
#358 = FACE_BOUND('',#359,.T.);
#359 = EDGE_LOOP('',(#360,#369,#370,#371));
#360 = ORIENTED_EDGE('',*,*,#361,.F.);
#361 = EDGE_CURVE('',#301,#362,#364,.T.);
#362 = VERTEX_POINT('',#363);
#363 = CARTESIAN_POINT('',(-0.517204021639,2.65,0.85));
#364 = CIRCLE('',#365,2.7);
#365 = AXIS2_PLACEMENT_3D('',#366,#367,#368);
#366 = CARTESIAN_POINT('',(0.,0.,0.85));
#367 = DIRECTION('',(0.,0.,-1.));
#368 = DIRECTION('',(-1.,1.224646799147E-16,0.));
#369 = ORIENTED_EDGE('',*,*,#308,.T.);
#370 = ORIENTED_EDGE('',*,*,#224,.F.);
#371 = ORIENTED_EDGE('',*,*,#372,.F.);
#372 = EDGE_CURVE('',#362,#217,#373,.T.);
#373 = LINE('',#374,#375);
#374 = CARTESIAN_POINT('',(-0.517204021639,2.65,0.65));
#375 = VECTOR('',#376,1.);
#376 = DIRECTION('',(0.,0.,-1.));
#377 = CYLINDRICAL_SURFACE('',#378,2.7);
#378 = AXIS2_PLACEMENT_3D('',#379,#380,#381);
#379 = CARTESIAN_POINT('',(0.,0.,0.65));
#380 = DIRECTION('',(0.,0.,-1.));
#381 = DIRECTION('',(-1.,1.224646799147E-16,0.));
#382 = ADVANCED_FACE('',(#383),#402,.F.);
#383 = FACE_BOUND('',#384,.T.);
#384 = EDGE_LOOP('',(#385,#386,#387,#396));
#385 = ORIENTED_EDGE('',*,*,#173,.F.);
#386 = ORIENTED_EDGE('',*,*,#315,.F.);
#387 = ORIENTED_EDGE('',*,*,#388,.F.);
#388 = EDGE_CURVE('',#389,#316,#391,.T.);
#389 = VERTEX_POINT('',#390);
#390 = CARTESIAN_POINT('',(-0.517204021639,-2.65,0.85));
#391 = CIRCLE('',#392,2.7);
#392 = AXIS2_PLACEMENT_3D('',#393,#394,#395);
#393 = CARTESIAN_POINT('',(0.,0.,0.85));
#394 = DIRECTION('',(0.,0.,-1.));
#395 = DIRECTION('',(-1.,1.224646799147E-16,0.));
#396 = ORIENTED_EDGE('',*,*,#397,.T.);
#397 = EDGE_CURVE('',#389,#174,#398,.T.);
#398 = LINE('',#399,#400);
#399 = CARTESIAN_POINT('',(-0.517204021639,-2.65,0.65));
#400 = VECTOR('',#401,1.);
#401 = DIRECTION('',(0.,0.,-1.));
#402 = CYLINDRICAL_SURFACE('',#403,2.7);
#403 = AXIS2_PLACEMENT_3D('',#404,#405,#406);
#404 = CARTESIAN_POINT('',(0.,0.,0.65));
#405 = DIRECTION('',(0.,0.,-1.));
#406 = DIRECTION('',(-1.,1.224646799147E-16,0.));
#407 = ADVANCED_FACE('',(#408),#458,.F.);
#408 = FACE_BOUND('',#409,.F.);
#409 = EDGE_LOOP('',(#410,#420,#428,#436,#442,#443,#444,#452));
#410 = ORIENTED_EDGE('',*,*,#411,.F.);
#411 = EDGE_CURVE('',#412,#414,#416,.T.);
#412 = VERTEX_POINT('',#413);
#413 = CARTESIAN_POINT('',(2.25,2.65,0.15));
#414 = VERTEX_POINT('',#415);
#415 = CARTESIAN_POINT('',(-1.65,2.65,0.15));
#416 = LINE('',#417,#418);
#417 = CARTESIAN_POINT('',(2.65,2.65,0.15));
#418 = VECTOR('',#419,1.);
#419 = DIRECTION('',(-1.,1.224646799147E-16,0.));
#420 = ORIENTED_EDGE('',*,*,#421,.T.);
#421 = EDGE_CURVE('',#412,#422,#424,.T.);
#422 = VERTEX_POINT('',#423);
#423 = CARTESIAN_POINT('',(2.25,2.65,1.15));
#424 = LINE('',#425,#426);
#425 = CARTESIAN_POINT('',(2.25,2.65,0.15));
#426 = VECTOR('',#427,1.);
#427 = DIRECTION('',(0.,0.,1.));
#428 = ORIENTED_EDGE('',*,*,#429,.T.);
#429 = EDGE_CURVE('',#422,#430,#432,.T.);
#430 = VERTEX_POINT('',#431);
#431 = CARTESIAN_POINT('',(0.517204021639,2.65,1.15));
#432 = LINE('',#433,#434);
#433 = CARTESIAN_POINT('',(2.65,2.65,1.15));
#434 = VECTOR('',#435,1.);
#435 = DIRECTION('',(-1.,1.224646799147E-16,0.));
#436 = ORIENTED_EDGE('',*,*,#437,.T.);
#437 = EDGE_CURVE('',#430,#208,#438,.T.);
#438 = LINE('',#439,#440);
#439 = CARTESIAN_POINT('',(0.517204021639,2.65,0.65));
#440 = VECTOR('',#441,1.);
#441 = DIRECTION('',(0.,0.,-1.));
#442 = ORIENTED_EDGE('',*,*,#216,.T.);
#443 = ORIENTED_EDGE('',*,*,#372,.F.);
#444 = ORIENTED_EDGE('',*,*,#445,.T.);
#445 = EDGE_CURVE('',#362,#446,#448,.T.);
#446 = VERTEX_POINT('',#447);
#447 = CARTESIAN_POINT('',(-1.65,2.65,0.85));
#448 = LINE('',#449,#450);
#449 = CARTESIAN_POINT('',(3.24531401774E-16,2.65,0.85));
#450 = VECTOR('',#451,1.);
#451 = DIRECTION('',(-1.,1.224646799147E-16,0.));
#452 = ORIENTED_EDGE('',*,*,#453,.F.);
#453 = EDGE_CURVE('',#414,#446,#454,.T.);
#454 = LINE('',#455,#456);
#455 = CARTESIAN_POINT('',(-1.65,2.65,0.15));
#456 = VECTOR('',#457,1.);
#457 = DIRECTION('',(0.,0.,1.));
#458 = PLANE('',#459);
#459 = AXIS2_PLACEMENT_3D('',#460,#461,#462);
#460 = CARTESIAN_POINT('',(2.65,2.65,0.15));
#461 = DIRECTION('',(-1.224646799147E-16,-1.,0.));
#462 = DIRECTION('',(-1.,1.224646799147E-16,0.));
#463 = ADVANCED_FACE('',(#464),#514,.F.);
#464 = FACE_BOUND('',#465,.F.);
#465 = EDGE_LOOP('',(#466,#476,#484,#492,#498,#499,#500,#508));
#466 = ORIENTED_EDGE('',*,*,#467,.F.);
#467 = EDGE_CURVE('',#468,#470,#472,.T.);
#468 = VERTEX_POINT('',#469);
#469 = CARTESIAN_POINT('',(2.25,-2.65,0.15));
#470 = VERTEX_POINT('',#471);
#471 = CARTESIAN_POINT('',(2.25,-2.65,1.15));
#472 = LINE('',#473,#474);
#473 = CARTESIAN_POINT('',(2.25,-2.65,0.15));
#474 = VECTOR('',#475,1.);
#475 = DIRECTION('',(0.,0.,1.));
#476 = ORIENTED_EDGE('',*,*,#477,.F.);
#477 = EDGE_CURVE('',#478,#468,#480,.T.);
#478 = VERTEX_POINT('',#479);
#479 = CARTESIAN_POINT('',(-1.65,-2.65,0.15));
#480 = LINE('',#481,#482);
#481 = CARTESIAN_POINT('',(-1.65,-2.65,0.15));
#482 = VECTOR('',#483,1.);
#483 = DIRECTION('',(1.,-1.224646799147E-16,0.));
#484 = ORIENTED_EDGE('',*,*,#485,.T.);
#485 = EDGE_CURVE('',#478,#486,#488,.T.);
#486 = VERTEX_POINT('',#487);
#487 = CARTESIAN_POINT('',(-1.65,-2.65,0.85));
#488 = LINE('',#489,#490);
#489 = CARTESIAN_POINT('',(-1.65,-2.65,0.15));
#490 = VECTOR('',#491,1.);
#491 = DIRECTION('',(0.,0.,1.));
#492 = ORIENTED_EDGE('',*,*,#493,.F.);
#493 = EDGE_CURVE('',#389,#486,#494,.T.);
#494 = LINE('',#495,#496);
#495 = CARTESIAN_POINT('',(-3.24531401774E-16,-2.65,0.85));
#496 = VECTOR('',#497,1.);
#497 = DIRECTION('',(-1.,1.224646799147E-16,0.));
#498 = ORIENTED_EDGE('',*,*,#397,.T.);
#499 = ORIENTED_EDGE('',*,*,#182,.T.);
#500 = ORIENTED_EDGE('',*,*,#501,.F.);
#501 = EDGE_CURVE('',#502,#183,#504,.T.);
#502 = VERTEX_POINT('',#503);
#503 = CARTESIAN_POINT('',(0.517204021639,-2.65,1.15));
#504 = LINE('',#505,#506);
#505 = CARTESIAN_POINT('',(0.517204021639,-2.65,0.65));
#506 = VECTOR('',#507,1.);
#507 = DIRECTION('',(0.,0.,-1.));
#508 = ORIENTED_EDGE('',*,*,#509,.T.);
#509 = EDGE_CURVE('',#502,#470,#510,.T.);
#510 = LINE('',#511,#512);
#511 = CARTESIAN_POINT('',(-1.65,-2.65,1.15));
#512 = VECTOR('',#513,1.);
#513 = DIRECTION('',(1.,-1.224646799147E-16,0.));
#514 = PLANE('',#515);
#515 = AXIS2_PLACEMENT_3D('',#516,#517,#518);
#516 = CARTESIAN_POINT('',(-1.65,-2.65,0.15));
#517 = DIRECTION('',(1.224646799147E-16,1.,0.));
#518 = DIRECTION('',(1.,-1.224646799147E-16,0.));
#519 = ADVANCED_FACE('',(#520),#539,.F.);
#520 = FACE_BOUND('',#521,.T.);
#521 = EDGE_LOOP('',(#522,#523,#524,#532));
#522 = ORIENTED_EDGE('',*,*,#437,.T.);
#523 = ORIENTED_EDGE('',*,*,#207,.F.);
#524 = ORIENTED_EDGE('',*,*,#525,.F.);
#525 = EDGE_CURVE('',#526,#200,#528,.T.);
#526 = VERTEX_POINT('',#527);
#527 = CARTESIAN_POINT('',(2.65,0.517204021639,1.15));
#528 = LINE('',#529,#530);
#529 = CARTESIAN_POINT('',(2.65,0.517204021639,0.65));
#530 = VECTOR('',#531,1.);
#531 = DIRECTION('',(0.,0.,-1.));
#532 = ORIENTED_EDGE('',*,*,#533,.T.);
#533 = EDGE_CURVE('',#526,#430,#534,.T.);
#534 = CIRCLE('',#535,2.7);
#535 = AXIS2_PLACEMENT_3D('',#536,#537,#538);
#536 = CARTESIAN_POINT('',(0.,0.,1.15));
#537 = DIRECTION('',(0.,0.,1.));
#538 = DIRECTION('',(-1.,1.224646799147E-16,0.));
#539 = CYLINDRICAL_SURFACE('',#540,2.7);
#540 = AXIS2_PLACEMENT_3D('',#541,#542,#543);
#541 = CARTESIAN_POINT('',(0.,0.,0.65));
#542 = DIRECTION('',(0.,0.,-1.));
#543 = DIRECTION('',(-1.,1.224646799147E-16,0.));
#544 = ADVANCED_FACE('',(#545),#564,.F.);
#545 = FACE_BOUND('',#546,.T.);
#546 = EDGE_LOOP('',(#547,#548,#549,#558));
#547 = ORIENTED_EDGE('',*,*,#190,.F.);
#548 = ORIENTED_EDGE('',*,*,#501,.F.);
#549 = ORIENTED_EDGE('',*,*,#550,.T.);
#550 = EDGE_CURVE('',#502,#551,#553,.T.);
#551 = VERTEX_POINT('',#552);
#552 = CARTESIAN_POINT('',(2.65,-0.517204021639,1.15));
#553 = CIRCLE('',#554,2.7);
#554 = AXIS2_PLACEMENT_3D('',#555,#556,#557);
#555 = CARTESIAN_POINT('',(0.,0.,1.15));
#556 = DIRECTION('',(0.,0.,1.));
#557 = DIRECTION('',(-1.,1.224646799147E-16,0.));
#558 = ORIENTED_EDGE('',*,*,#559,.T.);
#559 = EDGE_CURVE('',#551,#191,#560,.T.);
#560 = LINE('',#561,#562);
#561 = CARTESIAN_POINT('',(2.65,-0.517204021639,0.65));
#562 = VECTOR('',#563,1.);
#563 = DIRECTION('',(0.,0.,-1.));
#564 = CYLINDRICAL_SURFACE('',#565,2.7);
#565 = AXIS2_PLACEMENT_3D('',#566,#567,#568);
#566 = CARTESIAN_POINT('',(0.,0.,0.65));
#567 = DIRECTION('',(0.,0.,-1.));
#568 = DIRECTION('',(-1.,1.224646799147E-16,0.));
#569 = ADVANCED_FACE('',(#570),#629,.F.);
#570 = FACE_BOUND('',#571,.F.);
#571 = EDGE_LOOP('',(#572,#582,#590,#596,#597,#598,#599,#607,#615,#623)
);
#572 = ORIENTED_EDGE('',*,*,#573,.F.);
#573 = EDGE_CURVE('',#574,#576,#578,.T.);
#574 = VERTEX_POINT('',#575);
#575 = CARTESIAN_POINT('',(2.65,-2.25,0.15));
#576 = VERTEX_POINT('',#577);
#577 = CARTESIAN_POINT('',(2.65,-0.325,0.15));
#578 = LINE('',#579,#580);
#579 = CARTESIAN_POINT('',(2.65,-2.65,0.15));
#580 = VECTOR('',#581,1.);
#581 = DIRECTION('',(1.224646799147E-16,1.,0.));
#582 = ORIENTED_EDGE('',*,*,#583,.T.);
#583 = EDGE_CURVE('',#574,#584,#586,.T.);
#584 = VERTEX_POINT('',#585);
#585 = CARTESIAN_POINT('',(2.65,-2.25,1.15));
#586 = LINE('',#587,#588);
#587 = CARTESIAN_POINT('',(2.65,-2.25,0.15));
#588 = VECTOR('',#589,1.);
#589 = DIRECTION('',(0.,0.,1.));
#590 = ORIENTED_EDGE('',*,*,#591,.T.);
#591 = EDGE_CURVE('',#584,#551,#592,.T.);
#592 = LINE('',#593,#594);
#593 = CARTESIAN_POINT('',(2.65,-2.65,1.15));
#594 = VECTOR('',#595,1.);
#595 = DIRECTION('',(1.224646799147E-16,1.,0.));
#596 = ORIENTED_EDGE('',*,*,#559,.T.);
#597 = ORIENTED_EDGE('',*,*,#199,.T.);
#598 = ORIENTED_EDGE('',*,*,#525,.F.);
#599 = ORIENTED_EDGE('',*,*,#600,.T.);
#600 = EDGE_CURVE('',#526,#601,#603,.T.);
#601 = VERTEX_POINT('',#602);
#602 = CARTESIAN_POINT('',(2.65,2.25,1.15));
#603 = LINE('',#604,#605);
#604 = CARTESIAN_POINT('',(2.65,-2.65,1.15));
#605 = VECTOR('',#606,1.);
#606 = DIRECTION('',(1.224646799147E-16,1.,0.));
#607 = ORIENTED_EDGE('',*,*,#608,.F.);
#608 = EDGE_CURVE('',#609,#601,#611,.T.);
#609 = VERTEX_POINT('',#610);
#610 = CARTESIAN_POINT('',(2.65,2.25,0.15));
#611 = LINE('',#612,#613);
#612 = CARTESIAN_POINT('',(2.65,2.25,0.15));
#613 = VECTOR('',#614,1.);
#614 = DIRECTION('',(0.,0.,1.));
#615 = ORIENTED_EDGE('',*,*,#616,.F.);
#616 = EDGE_CURVE('',#617,#609,#619,.T.);
#617 = VERTEX_POINT('',#618);
#618 = CARTESIAN_POINT('',(2.65,0.325,0.15));
#619 = LINE('',#620,#621);
#620 = CARTESIAN_POINT('',(2.65,-2.65,0.15));
#621 = VECTOR('',#622,1.);
#622 = DIRECTION('',(1.224646799147E-16,1.,0.));
#623 = ORIENTED_EDGE('',*,*,#624,.F.);
#624 = EDGE_CURVE('',#576,#617,#625,.T.);
#625 = LINE('',#626,#627);
#626 = CARTESIAN_POINT('',(2.65,-2.65,0.15));
#627 = VECTOR('',#628,1.);
#628 = DIRECTION('',(1.224646799147E-16,1.,0.));
#629 = PLANE('',#630);
#630 = AXIS2_PLACEMENT_3D('',#631,#632,#633);
#631 = CARTESIAN_POINT('',(2.65,-2.65,0.15));
#632 = DIRECTION('',(-1.,1.224646799147E-16,0.));
#633 = DIRECTION('',(1.224646799147E-16,1.,0.));
#634 = ADVANCED_FACE('',(#635),#664,.T.);
#635 = FACE_BOUND('',#636,.T.);
#636 = EDGE_LOOP('',(#637,#645,#662,#663));
#637 = ORIENTED_EDGE('',*,*,#638,.T.);
#638 = EDGE_CURVE('',#243,#639,#641,.T.);
#639 = VERTEX_POINT('',#640);
#640 = CARTESIAN_POINT('',(-2.5,3.061616997868E-16,1.464316767252));
#641 = ( BOUNDED_CURVE() B_SPLINE_CURVE(2,(#642,#643,#644),
.UNSPECIFIED.,.F.,.F.) B_SPLINE_CURVE_WITH_KNOTS((3,3),(0.,
15.707963267949),.PIECEWISE_BEZIER_KNOTS.) CURVE()
GEOMETRIC_REPRESENTATION_ITEM() RATIONAL_B_SPLINE_CURVE((1.,
0.738548945876,1.)) REPRESENTATION_ITEM('') );
#642 = CARTESIAN_POINT('',(-2.486363636364,3.044917268789E-16,
1.44937887932));
#643 = CARTESIAN_POINT('',(-2.5,3.083453984826E-15,1.450623703314));
#644 = CARTESIAN_POINT('',(-2.5,3.061616997868E-16,1.464316767252));
#645 = ORIENTED_EDGE('',*,*,#646,.T.);
#646 = EDGE_CURVE('',#639,#639,#647,.T.);
#647 = ( BOUNDED_CURVE() B_SPLINE_CURVE(13,(#648,#649,#650,#651,#652,
#653,#654,#655,#656,#657,#658,#659,#660,#661),.UNSPECIFIED.,.T.,.F.)
B_SPLINE_CURVE_WITH_KNOTS((14,14),(3.106555508923E-16,15.707963267949),
.PIECEWISE_BEZIER_KNOTS.) CURVE() GEOMETRIC_REPRESENTATION_ITEM()
RATIONAL_B_SPLINE_CURVE((1.,1.,1.000000000001,0.999999999997,
1.000000000006,0.99999999999,1.000000000011,0.99999999999,
1.000000000008,0.999999999995,1.000000000002,0.999999999999,1.,1.))
REPRESENTATION_ITEM('') );
#648 = CARTESIAN_POINT('',(-2.5,3.061616997868E-16,1.464316767252));
#649 = CARTESIAN_POINT('',(-2.500000000002,1.190825886764,1.464316767252
));
#650 = CARTESIAN_POINT('',(-1.884541892296,2.409113115869,1.464316767252
));
#651 = CARTESIAN_POINT('',(-0.618015285826,3.280240320886,1.464316767252
));
#652 = CARTESIAN_POINT('',(1.124886085404,3.414028857857,1.464316767252)
);
#653 = CARTESIAN_POINT('',(2.630545419372,2.485545151041,1.464316767252)
);
#654 = CARTESIAN_POINT('',(3.734788378759,1.130166370704,1.464316767252)
);
#655 = CARTESIAN_POINT('',(3.734788378769,-1.130166370729,1.464316767251
));
#656 = CARTESIAN_POINT('',(2.630545419383,-2.485545150997,1.464316767252
));
#657 = CARTESIAN_POINT('',(1.124886085381,-3.414028857896,1.464316767252
));
#658 = CARTESIAN_POINT('',(-0.618015285804,-3.280240320867,
1.464316767252));
#659 = CARTESIAN_POINT('',(-1.884541892306,-2.409113115874,
1.464316767252));
#660 = CARTESIAN_POINT('',(-2.499999999999,-1.190825886764,
1.464316767252));
#661 = CARTESIAN_POINT('',(-2.5,-3.061616997868E-16,1.464316767252));
#662 = ORIENTED_EDGE('',*,*,#638,.F.);
#663 = ORIENTED_EDGE('',*,*,#253,.F.);
#664 = ( BOUNDED_SURFACE() B_SPLINE_SURFACE(2,13,(
(#665,#666,#667,#668,#669,#670,#671,#672,#673,#674,#675,#676,#677
,#678)
,(#679,#680,#681,#682,#683,#684,#685,#686,#687,#688,#689,#690,#691
,#692)
,(#693,#694,#695,#696,#697,#698,#699,#700,#701,#702,#703,#704,#705
,#706
)),.UNSPECIFIED.,.F.,.F.,.F.) B_SPLINE_SURFACE_WITH_KNOTS((3,3),(14,
14),(0.,15.707963267949),(3.106555508923E-16,15.707963267949),
.PIECEWISE_BEZIER_KNOTS.) GEOMETRIC_REPRESENTATION_ITEM()
RATIONAL_B_SPLINE_SURFACE((
(1.,1.,1.000000000001,0.999999999997,1.000000000006,0.99999999999
,1.000000000011,0.99999999999,1.000000000008,0.999999999995
,1.000000000002,0.999999999999,1.,1.)
,(0.738548945876,0.738548945876,0.738548945877,0.738548945873
,0.738548945881,0.738548945868,0.738548945885,0.738548945867
,0.738548945883,0.738548945872,0.738548945878,0.738548945875
,0.738548945876,0.738548945876)
,(1.,1.,1.000000000001,0.999999999997,1.000000000006,0.99999999999
,1.000000000011,0.99999999999,1.000000000008,0.999999999995
,1.000000000002,0.999999999999,1.,1.
))) REPRESENTATION_ITEM('') SURFACE() );
#665 = CARTESIAN_POINT('',(-2.486363636364,3.044917268789E-16,
1.44937887932));
#666 = CARTESIAN_POINT('',(-2.486363636365,1.184330472836,1.44937887932)
);
#667 = CARTESIAN_POINT('',(-1.874262572885,2.395972498874,1.44937887932)
);
#668 = CARTESIAN_POINT('',(-0.614644293354,3.262348100952,1.44937887932)
);
#669 = CARTESIAN_POINT('',(1.118750343112,3.395406882273,1.44937887932)
);
#670 = CARTESIAN_POINT('',(2.616196989824,2.471987632029,1.44937887932)
);
#671 = CARTESIAN_POINT('',(3.714416805769,1.124001826872,1.44937887932)
);
#672 = CARTESIAN_POINT('',(3.714416805809,-1.124001826896,1.44937887932)
);
#673 = CARTESIAN_POINT('',(2.616196989811,-2.471987631985,1.44937887932)
);
#674 = CARTESIAN_POINT('',(1.118750343104,-3.395406882312,1.44937887932)
);
#675 = CARTESIAN_POINT('',(-0.61464429334,-3.262348100933,1.44937887932)
);
#676 = CARTESIAN_POINT('',(-1.874262572892,-2.395972498879,1.44937887932
));
#677 = CARTESIAN_POINT('',(-2.486363636363,-1.184330472836,1.44937887932
));
#678 = CARTESIAN_POINT('',(-2.486363636364,-3.044917268789E-16,
1.44937887932));
#679 = CARTESIAN_POINT('',(-2.5,3.083453984826E-15,1.450623703314));
#680 = CARTESIAN_POINT('',(-2.500000000001,1.190825886764,1.450623703314
));
#681 = CARTESIAN_POINT('',(-1.884541892297,2.409113115869,1.450623703314
));
#682 = CARTESIAN_POINT('',(-0.618015285823,3.280240320887,1.450623703314
));
#683 = CARTESIAN_POINT('',(1.124886085398,3.414028857854,1.450623703314)
);
#684 = CARTESIAN_POINT('',(2.630545419384,2.485545151046,1.450623703314)
);
#685 = CARTESIAN_POINT('',(3.734788378742,1.130166370698,1.450623703314)
);
#686 = CARTESIAN_POINT('',(3.734788378788,-1.130166370726,1.450623703314
));
#687 = CARTESIAN_POINT('',(2.630545419368,-2.485545150998,1.450623703314
));
#688 = CARTESIAN_POINT('',(1.124886085389,-3.414028857896,1.450623703314
));
#689 = CARTESIAN_POINT('',(-0.618015285808,-3.280240320868,
1.450623703314));
#690 = CARTESIAN_POINT('',(-1.884541892305,-2.409113115874,
1.450623703314));
#691 = CARTESIAN_POINT('',(-2.499999999999,-1.190825886764,
1.450623703314));
#692 = CARTESIAN_POINT('',(-2.5,-3.521658593464E-16,1.450623703314));
#693 = CARTESIAN_POINT('',(-2.5,3.061616997868E-16,1.464316767252));
#694 = CARTESIAN_POINT('',(-2.500000000002,1.190825886764,1.464316767252
));
#695 = CARTESIAN_POINT('',(-1.884541892296,2.409113115869,1.464316767252
));
#696 = CARTESIAN_POINT('',(-0.618015285826,3.280240320886,1.464316767252
));
#697 = CARTESIAN_POINT('',(1.124886085404,3.414028857857,1.464316767252)
);
#698 = CARTESIAN_POINT('',(2.630545419372,2.485545151041,1.464316767252)
);
#699 = CARTESIAN_POINT('',(3.734788378759,1.130166370704,1.464316767252)
);
#700 = CARTESIAN_POINT('',(3.734788378769,-1.130166370729,1.464316767251
));
#701 = CARTESIAN_POINT('',(2.630545419383,-2.485545150997,1.464316767252
));
#702 = CARTESIAN_POINT('',(1.124886085381,-3.414028857896,1.464316767252
));
#703 = CARTESIAN_POINT('',(-0.618015285804,-3.280240320867,
1.464316767252));
#704 = CARTESIAN_POINT('',(-1.884541892306,-2.409113115874,
1.464316767252));
#705 = CARTESIAN_POINT('',(-2.499999999999,-1.190825886764,
1.464316767252));
#706 = CARTESIAN_POINT('',(-2.5,-3.061616997868E-16,1.464316767252));
#707 = ADVANCED_FACE('',(#708),#788,.F.);
#708 = FACE_BOUND('',#709,.F.);
#709 = EDGE_LOOP('',(#710,#717,#718,#726,#735,#741,#742,#749,#750,#756,
#757,#765,#774,#780,#781,#787));
#710 = ORIENTED_EDGE('',*,*,#711,.F.);
#711 = EDGE_CURVE('',#574,#468,#712,.T.);
#712 = CIRCLE('',#713,0.4);
#713 = AXIS2_PLACEMENT_3D('',#714,#715,#716);
#714 = CARTESIAN_POINT('',(2.25,-2.25,0.15));
#715 = DIRECTION('',(0.,0.,-1.));
#716 = DIRECTION('',(1.224646799147E-16,1.,0.));
#717 = ORIENTED_EDGE('',*,*,#573,.T.);
#718 = ORIENTED_EDGE('',*,*,#719,.F.);
#719 = EDGE_CURVE('',#720,#576,#722,.T.);
#720 = VERTEX_POINT('',#721);
#721 = CARTESIAN_POINT('',(1.075,-0.325,0.15));
#722 = LINE('',#723,#724);
#723 = CARTESIAN_POINT('',(1.075,-0.325,0.15));
#724 = VECTOR('',#725,1.);
#725 = DIRECTION('',(1.,-2.704517282117E-16,0.));
#726 = ORIENTED_EDGE('',*,*,#727,.F.);
#727 = EDGE_CURVE('',#728,#720,#730,.T.);
#728 = VERTEX_POINT('',#729);
#729 = CARTESIAN_POINT('',(1.075,0.325,0.15));
#730 = CIRCLE('',#731,0.325);
#731 = AXIS2_PLACEMENT_3D('',#732,#733,#734);
#732 = CARTESIAN_POINT('',(1.075,-2.494212740089E-16,0.15));
#733 = DIRECTION('',(0.,-0.,1.));
#734 = DIRECTION('',(9.281435288296E-16,1.,0.));
#735 = ORIENTED_EDGE('',*,*,#736,.F.);
#736 = EDGE_CURVE('',#617,#728,#737,.T.);
#737 = LINE('',#738,#739);
#738 = CARTESIAN_POINT('',(3.25,0.325,0.15));
#739 = VECTOR('',#740,1.);
#740 = DIRECTION('',(-1.,2.449293598295E-16,0.));
#741 = ORIENTED_EDGE('',*,*,#616,.T.);
#742 = ORIENTED_EDGE('',*,*,#743,.F.);
#743 = EDGE_CURVE('',#412,#609,#744,.T.);
#744 = CIRCLE('',#745,0.4);
#745 = AXIS2_PLACEMENT_3D('',#746,#747,#748);
#746 = CARTESIAN_POINT('',(2.25,2.25,0.15));
#747 = DIRECTION('',(0.,0.,-1.));
#748 = DIRECTION('',(1.224646799147E-16,1.,0.));
#749 = ORIENTED_EDGE('',*,*,#411,.T.);
#750 = ORIENTED_EDGE('',*,*,#751,.T.);
#751 = EDGE_CURVE('',#414,#283,#752,.T.);
#752 = LINE('',#753,#754);
#753 = CARTESIAN_POINT('',(-1.65,2.65,0.15));
#754 = VECTOR('',#755,1.);
#755 = DIRECTION('',(-0.707106781187,-0.707106781187,0.));
#756 = ORIENTED_EDGE('',*,*,#282,.T.);
#757 = ORIENTED_EDGE('',*,*,#758,.F.);
#758 = EDGE_CURVE('',#759,#285,#761,.T.);
#759 = VERTEX_POINT('',#760);
#760 = CARTESIAN_POINT('',(-1.075,0.325,0.15));
#761 = LINE('',#762,#763);
#762 = CARTESIAN_POINT('',(-1.075,0.325,0.15));
#763 = VECTOR('',#764,1.);
#764 = DIRECTION('',(-1.,1.479870482969E-16,0.));
#765 = ORIENTED_EDGE('',*,*,#766,.F.);
#766 = EDGE_CURVE('',#767,#759,#769,.T.);
#767 = VERTEX_POINT('',#768);
#768 = CARTESIAN_POINT('',(-1.075,-0.325,0.15));
#769 = CIRCLE('',#770,0.325);
#770 = AXIS2_PLACEMENT_3D('',#771,#772,#773);
#771 = CARTESIAN_POINT('',(-1.075,1.177717431005E-16,0.15));
#772 = DIRECTION('',(0.,0.,1.));
#773 = DIRECTION('',(-8.056788489148E-16,-1.,0.));
#774 = ORIENTED_EDGE('',*,*,#775,.F.);
#775 = EDGE_CURVE('',#340,#767,#776,.T.);
#776 = LINE('',#777,#778);
#777 = CARTESIAN_POINT('',(-3.25,-0.325,0.15));
#778 = VECTOR('',#779,1.);
#779 = DIRECTION('',(1.,-1.224646799147E-16,0.));
#780 = ORIENTED_EDGE('',*,*,#339,.T.);
#781 = ORIENTED_EDGE('',*,*,#782,.T.);
#782 = EDGE_CURVE('',#332,#478,#783,.T.);
#783 = LINE('',#784,#785);
#784 = CARTESIAN_POINT('',(-2.65,-1.65,0.15));
#785 = VECTOR('',#786,1.);
#786 = DIRECTION('',(0.707106781187,-0.707106781187,0.));
#787 = ORIENTED_EDGE('',*,*,#477,.T.);
#788 = PLANE('',#789);
#789 = AXIS2_PLACEMENT_3D('',#790,#791,#792);
#790 = CARTESIAN_POINT('',(0.175694359816,-1.102081328939E-16,0.15));
#791 = DIRECTION('',(-5.658010966956E-34,-5.426844299802E-34,1.));
#792 = DIRECTION('',(-1.,1.224646799147E-16,-5.658010966956E-34));
#793 = ADVANCED_FACE('',(#794),#805,.F.);
#794 = FACE_BOUND('',#795,.F.);
#795 = EDGE_LOOP('',(#796,#797,#798,#804));
#796 = ORIENTED_EDGE('',*,*,#751,.F.);
#797 = ORIENTED_EDGE('',*,*,#453,.T.);
#798 = ORIENTED_EDGE('',*,*,#799,.T.);
#799 = EDGE_CURVE('',#446,#293,#800,.T.);
#800 = LINE('',#801,#802);
#801 = CARTESIAN_POINT('',(-1.2375,3.0625,0.85));
#802 = VECTOR('',#803,1.);
#803 = DIRECTION('',(-0.707106781187,-0.707106781187,0.));
#804 = ORIENTED_EDGE('',*,*,#292,.F.);
#805 = PLANE('',#806);
#806 = AXIS2_PLACEMENT_3D('',#807,#808,#809);
#807 = CARTESIAN_POINT('',(-1.65,2.65,0.15));
#808 = DIRECTION('',(0.707106781187,-0.707106781187,0.));
#809 = DIRECTION('',(-0.707106781187,-0.707106781187,0.));
#810 = ADVANCED_FACE('',(#811),#836,.T.);
#811 = FACE_BOUND('',#812,.T.);
#812 = EDGE_LOOP('',(#813,#821,#829,#835));
#813 = ORIENTED_EDGE('',*,*,#814,.T.);
#814 = EDGE_CURVE('',#285,#815,#817,.T.);
#815 = VERTEX_POINT('',#816);
#816 = CARTESIAN_POINT('',(-3.25,0.325,0.15));
#817 = LINE('',#818,#819);
#818 = CARTESIAN_POINT('',(-1.075,0.325,0.15));
#819 = VECTOR('',#820,1.);
#820 = DIRECTION('',(-1.,1.479870482969E-16,0.));
#821 = ORIENTED_EDGE('',*,*,#822,.T.);
#822 = EDGE_CURVE('',#815,#823,#825,.T.);
#823 = VERTEX_POINT('',#824);
#824 = CARTESIAN_POINT('',(-3.25,-0.325,0.15));
#825 = LINE('',#826,#827);
#826 = CARTESIAN_POINT('',(-3.25,0.325,0.15));
#827 = VECTOR('',#828,1.);
#828 = DIRECTION('',(-1.224646799147E-16,-1.,0.));
#829 = ORIENTED_EDGE('',*,*,#830,.T.);
#830 = EDGE_CURVE('',#823,#340,#831,.T.);
#831 = LINE('',#832,#833);
#832 = CARTESIAN_POINT('',(-3.25,-0.325,0.15));
#833 = VECTOR('',#834,1.);
#834 = DIRECTION('',(1.,-1.224646799147E-16,0.));
#835 = ORIENTED_EDGE('',*,*,#347,.F.);
#836 = PLANE('',#837);
#837 = AXIS2_PLACEMENT_3D('',#838,#839,#840);
#838 = CARTESIAN_POINT('',(-2.072728390536,2.25964311166E-16,0.15));
#839 = DIRECTION('',(0.,0.,1.));
#840 = DIRECTION('',(-1.,1.224646799147E-16,0.));
#841 = ADVANCED_FACE('',(#842),#848,.T.);
#842 = FACE_BOUND('',#843,.T.);
#843 = EDGE_LOOP('',(#844,#845,#846,#847));
#844 = ORIENTED_EDGE('',*,*,#361,.T.);
#845 = ORIENTED_EDGE('',*,*,#445,.T.);
#846 = ORIENTED_EDGE('',*,*,#799,.T.);
#847 = ORIENTED_EDGE('',*,*,#300,.T.);
#848 = PLANE('',#849);
#849 = AXIS2_PLACEMENT_3D('',#850,#851,#852);
#850 = CARTESIAN_POINT('',(3.24531401774E-16,2.65,0.85));
#851 = DIRECTION('',(0.,0.,1.));
#852 = DIRECTION('',(-1.,1.224646799147E-16,0.));
#853 = ADVANCED_FACE('',(#854),#865,.F.);
#854 = FACE_BOUND('',#855,.F.);
#855 = EDGE_LOOP('',(#856,#857,#858,#864));
#856 = ORIENTED_EDGE('',*,*,#782,.F.);
#857 = ORIENTED_EDGE('',*,*,#331,.T.);
#858 = ORIENTED_EDGE('',*,*,#859,.T.);
#859 = EDGE_CURVE('',#324,#486,#860,.T.);
#860 = LINE('',#861,#862);
#861 = CARTESIAN_POINT('',(-3.0625,-1.2375,0.85));
#862 = VECTOR('',#863,1.);
#863 = DIRECTION('',(0.707106781187,-0.707106781187,0.));
#864 = ORIENTED_EDGE('',*,*,#485,.F.);
#865 = PLANE('',#866);
#866 = AXIS2_PLACEMENT_3D('',#867,#868,#869);
#867 = CARTESIAN_POINT('',(-2.65,-1.65,0.15));
#868 = DIRECTION('',(0.707106781187,0.707106781187,0.));
#869 = DIRECTION('',(0.707106781187,-0.707106781187,0.));
#870 = ADVANCED_FACE('',(#871),#877,.T.);
#871 = FACE_BOUND('',#872,.T.);
#872 = EDGE_LOOP('',(#873,#874,#875,#876));
#873 = ORIENTED_EDGE('',*,*,#493,.F.);
#874 = ORIENTED_EDGE('',*,*,#388,.T.);
#875 = ORIENTED_EDGE('',*,*,#323,.T.);
#876 = ORIENTED_EDGE('',*,*,#859,.T.);
#877 = PLANE('',#878);
#878 = AXIS2_PLACEMENT_3D('',#879,#880,#881);
#879 = CARTESIAN_POINT('',(3.24531401774E-16,2.65,0.85));
#880 = DIRECTION('',(0.,0.,1.));
#881 = DIRECTION('',(-1.,1.224646799147E-16,0.));
#882 = ADVANCED_FACE('',(#883),#895,.T.);
#883 = FACE_BOUND('',#884,.T.);
#884 = EDGE_LOOP('',(#885,#886,#887,#894));
#885 = ORIENTED_EDGE('',*,*,#533,.F.);
#886 = ORIENTED_EDGE('',*,*,#600,.T.);
#887 = ORIENTED_EDGE('',*,*,#888,.F.);
#888 = EDGE_CURVE('',#422,#601,#889,.T.);
#889 = CIRCLE('',#890,0.4);
#890 = AXIS2_PLACEMENT_3D('',#891,#892,#893);
#891 = CARTESIAN_POINT('',(2.25,2.25,1.15));
#892 = DIRECTION('',(0.,0.,-1.));
#893 = DIRECTION('',(1.224646799147E-16,1.,0.));
#894 = ORIENTED_EDGE('',*,*,#429,.T.);
#895 = PLANE('',#896);
#896 = AXIS2_PLACEMENT_3D('',#897,#898,#899);
#897 = CARTESIAN_POINT('',(0.175694359816,-1.102081328939E-16,1.15));
#898 = DIRECTION('',(-5.658010966956E-34,-5.426844299802E-34,1.));
#899 = DIRECTION('',(-1.,1.224646799147E-16,-5.658010966956E-34));
#900 = ADVANCED_FACE('',(#901),#907,.T.);
#901 = FACE_BOUND('',#902,.F.);
#902 = EDGE_LOOP('',(#903,#904,#905,#906));
#903 = ORIENTED_EDGE('',*,*,#743,.T.);
#904 = ORIENTED_EDGE('',*,*,#608,.T.);
#905 = ORIENTED_EDGE('',*,*,#888,.F.);
#906 = ORIENTED_EDGE('',*,*,#421,.F.);
#907 = CYLINDRICAL_SURFACE('',#908,0.4);
#908 = AXIS2_PLACEMENT_3D('',#909,#910,#911);
#909 = CARTESIAN_POINT('',(2.25,2.25,0.15));
#910 = DIRECTION('',(0.,0.,1.));
#911 = DIRECTION('',(1.224646799147E-16,1.,0.));
#912 = ADVANCED_FACE('',(#913),#925,.T.);
#913 = FACE_BOUND('',#914,.F.);
#914 = EDGE_LOOP('',(#915,#916,#917,#924));
#915 = ORIENTED_EDGE('',*,*,#711,.T.);
#916 = ORIENTED_EDGE('',*,*,#467,.T.);
#917 = ORIENTED_EDGE('',*,*,#918,.F.);
#918 = EDGE_CURVE('',#584,#470,#919,.T.);
#919 = CIRCLE('',#920,0.4);
#920 = AXIS2_PLACEMENT_3D('',#921,#922,#923);
#921 = CARTESIAN_POINT('',(2.25,-2.25,1.15));
#922 = DIRECTION('',(0.,0.,-1.));
#923 = DIRECTION('',(1.224646799147E-16,1.,0.));
#924 = ORIENTED_EDGE('',*,*,#583,.F.);
#925 = CYLINDRICAL_SURFACE('',#926,0.4);
#926 = AXIS2_PLACEMENT_3D('',#927,#928,#929);
#927 = CARTESIAN_POINT('',(2.25,-2.25,0.15));
#928 = DIRECTION('',(0.,0.,1.));
#929 = DIRECTION('',(1.,-1.224646799147E-16,0.));
#930 = ADVANCED_FACE('',(#931),#937,.T.);
#931 = FACE_BOUND('',#932,.T.);
#932 = EDGE_LOOP('',(#933,#934,#935,#936));
#933 = ORIENTED_EDGE('',*,*,#918,.F.);
#934 = ORIENTED_EDGE('',*,*,#591,.T.);
#935 = ORIENTED_EDGE('',*,*,#550,.F.);
#936 = ORIENTED_EDGE('',*,*,#509,.T.);
#937 = PLANE('',#938);
#938 = AXIS2_PLACEMENT_3D('',#939,#940,#941);
#939 = CARTESIAN_POINT('',(0.175694359816,-1.102081328939E-16,1.15));
#940 = DIRECTION('',(-5.658010966956E-34,-5.426844299802E-34,1.));
#941 = DIRECTION('',(-1.,1.224646799147E-16,-5.658010966956E-34));
#942 = ADVANCED_FACE('',(#943),#968,.T.);
#943 = FACE_BOUND('',#944,.T.);
#944 = EDGE_LOOP('',(#945,#953,#961,#967));
#945 = ORIENTED_EDGE('',*,*,#946,.T.);
#946 = EDGE_CURVE('',#576,#947,#949,.T.);
#947 = VERTEX_POINT('',#948);
#948 = CARTESIAN_POINT('',(3.25,-0.325,0.15));
#949 = LINE('',#950,#951);
#950 = CARTESIAN_POINT('',(1.075,-0.325,0.15));
#951 = VECTOR('',#952,1.);
#952 = DIRECTION('',(1.,-2.704517282117E-16,0.));
#953 = ORIENTED_EDGE('',*,*,#954,.T.);
#954 = EDGE_CURVE('',#947,#955,#957,.T.);
#955 = VERTEX_POINT('',#956);
#956 = CARTESIAN_POINT('',(3.25,0.325,0.15));
#957 = LINE('',#958,#959);
#958 = CARTESIAN_POINT('',(3.25,-0.325,0.15));
#959 = VECTOR('',#960,1.);
#960 = DIRECTION('',(2.449293598295E-16,1.,0.));
#961 = ORIENTED_EDGE('',*,*,#962,.T.);
#962 = EDGE_CURVE('',#955,#617,#963,.T.);
#963 = LINE('',#964,#965);
#964 = CARTESIAN_POINT('',(3.25,0.325,0.15));
#965 = VECTOR('',#966,1.);
#966 = DIRECTION('',(-1.,2.449293598295E-16,0.));
#967 = ORIENTED_EDGE('',*,*,#624,.F.);
#968 = PLANE('',#969);
#969 = AXIS2_PLACEMENT_3D('',#970,#971,#972);
#970 = CARTESIAN_POINT('',(2.072728390536,-4.798003300631E-16,0.15));
#971 = DIRECTION('',(0.,0.,1.));
#972 = DIRECTION('',(1.,-2.449293598295E-16,0.));
#973 = ADVANCED_FACE('',(#974),#1020,.T.);
#974 = FACE_BOUND('',#975,.F.);
#975 = EDGE_LOOP('',(#976,#984,#993,#1002,#1011,#1018,#1019));
#976 = ORIENTED_EDGE('',*,*,#977,.T.);
#977 = EDGE_CURVE('',#639,#978,#980,.T.);
#978 = VERTEX_POINT('',#979);
#979 = CARTESIAN_POINT('',(-2.5,3.061616997868E-16,2.666666666667));
#980 = LINE('',#981,#982);
#981 = CARTESIAN_POINT('',(-2.5,3.061616997868E-16,1.45));
#982 = VECTOR('',#983,1.);
#983 = DIRECTION('',(0.,0.,1.));
#984 = ORIENTED_EDGE('',*,*,#985,.F.);
#985 = EDGE_CURVE('',#986,#978,#988,.T.);
#986 = VERTEX_POINT('',#987);
#987 = CARTESIAN_POINT('',(0.75,-2.384848003542,2.666666666667));
#988 = CIRCLE('',#989,2.5);
#989 = AXIS2_PLACEMENT_3D('',#990,#991,#992);
#990 = CARTESIAN_POINT('',(0.,0.,2.666666666667));
#991 = DIRECTION('',(0.,0.,-1.));
#992 = DIRECTION('',(-1.,1.224646799147E-16,0.));
#993 = ORIENTED_EDGE('',*,*,#994,.F.);
#994 = EDGE_CURVE('',#995,#986,#997,.T.);
#995 = VERTEX_POINT('',#996);
#996 = CARTESIAN_POINT('',(2.5,2.289409804282E-15,2.666666666667));
#997 = CIRCLE('',#998,2.5);
#998 = AXIS2_PLACEMENT_3D('',#999,#1000,#1001);
#999 = CARTESIAN_POINT('',(0.,0.,2.666666666667));
#1000 = DIRECTION('',(0.,0.,-1.));
#1001 = DIRECTION('',(-1.,1.224646799147E-16,0.));
#1002 = ORIENTED_EDGE('',*,*,#1003,.F.);
#1003 = EDGE_CURVE('',#1004,#995,#1006,.T.);
#1004 = VERTEX_POINT('',#1005);
#1005 = CARTESIAN_POINT('',(0.75,2.384848003542,2.666666666667));
#1006 = CIRCLE('',#1007,2.5);
#1007 = AXIS2_PLACEMENT_3D('',#1008,#1009,#1010);
#1008 = CARTESIAN_POINT('',(0.,0.,2.666666666667));
#1009 = DIRECTION('',(0.,0.,-1.));
#1010 = DIRECTION('',(-1.,1.224646799147E-16,0.));
#1011 = ORIENTED_EDGE('',*,*,#1012,.F.);
#1012 = EDGE_CURVE('',#978,#1004,#1013,.T.);
#1013 = CIRCLE('',#1014,2.5);
#1014 = AXIS2_PLACEMENT_3D('',#1015,#1016,#1017);
#1015 = CARTESIAN_POINT('',(0.,0.,2.666666666667));
#1016 = DIRECTION('',(0.,0.,-1.));
#1017 = DIRECTION('',(-1.,1.224646799147E-16,0.));
#1018 = ORIENTED_EDGE('',*,*,#977,.F.);
#1019 = ORIENTED_EDGE('',*,*,#646,.T.);
#1020 = CYLINDRICAL_SURFACE('',#1021,2.5);
#1021 = AXIS2_PLACEMENT_3D('',#1022,#1023,#1024);
#1022 = CARTESIAN_POINT('',(0.,0.,1.45));
#1023 = DIRECTION('',(0.,0.,1.));
#1024 = DIRECTION('',(-1.,1.224646799147E-16,0.));
#1025 = ADVANCED_FACE('',(#1026),#1052,.F.);
#1026 = FACE_BOUND('',#1027,.F.);
#1027 = EDGE_LOOP('',(#1028,#1036,#1037,#1038,#1046));
#1028 = ORIENTED_EDGE('',*,*,#1029,.T.);
#1029 = EDGE_CURVE('',#1030,#823,#1032,.T.);
#1030 = VERTEX_POINT('',#1031);
#1031 = CARTESIAN_POINT('',(-3.25,-0.325,0.));
#1032 = LINE('',#1033,#1034);
#1033 = CARTESIAN_POINT('',(-3.25,-0.325,0.));
#1034 = VECTOR('',#1035,1.);
#1035 = DIRECTION('',(0.,0.,1.));
#1036 = ORIENTED_EDGE('',*,*,#830,.T.);
#1037 = ORIENTED_EDGE('',*,*,#775,.T.);
#1038 = ORIENTED_EDGE('',*,*,#1039,.F.);
#1039 = EDGE_CURVE('',#1040,#767,#1042,.T.);
#1040 = VERTEX_POINT('',#1041);
#1041 = CARTESIAN_POINT('',(-1.075,-0.325,0.));
#1042 = LINE('',#1043,#1044);
#1043 = CARTESIAN_POINT('',(-1.075,-0.325,0.));
#1044 = VECTOR('',#1045,1.);
#1045 = DIRECTION('',(0.,0.,1.));
#1046 = ORIENTED_EDGE('',*,*,#1047,.F.);
#1047 = EDGE_CURVE('',#1030,#1040,#1048,.T.);
#1048 = LINE('',#1049,#1050);
#1049 = CARTESIAN_POINT('',(-3.25,-0.325,0.));
#1050 = VECTOR('',#1051,1.);
#1051 = DIRECTION('',(1.,-1.224646799147E-16,0.));
#1052 = PLANE('',#1053);
#1053 = AXIS2_PLACEMENT_3D('',#1054,#1055,#1056);
#1054 = CARTESIAN_POINT('',(-3.25,-0.325,0.));
#1055 = DIRECTION('',(1.224646799147E-16,1.,0.));
#1056 = DIRECTION('',(1.,-1.224646799147E-16,0.));
#1057 = ADVANCED_FACE('',(#1058),#1077,.T.);
#1058 = FACE_BOUND('',#1059,.F.);
#1059 = EDGE_LOOP('',(#1060,#1061,#1062,#1070));
#1060 = ORIENTED_EDGE('',*,*,#1039,.T.);
#1061 = ORIENTED_EDGE('',*,*,#766,.T.);
#1062 = ORIENTED_EDGE('',*,*,#1063,.F.);
#1063 = EDGE_CURVE('',#1064,#759,#1066,.T.);
#1064 = VERTEX_POINT('',#1065);
#1065 = CARTESIAN_POINT('',(-1.075,0.325,0.));
#1066 = LINE('',#1067,#1068);
#1067 = CARTESIAN_POINT('',(-1.075,0.325,0.));
#1068 = VECTOR('',#1069,1.);
#1069 = DIRECTION('',(0.,0.,1.));
#1070 = ORIENTED_EDGE('',*,*,#1071,.F.);
#1071 = EDGE_CURVE('',#1040,#1064,#1072,.T.);
#1072 = CIRCLE('',#1073,0.325);
#1073 = AXIS2_PLACEMENT_3D('',#1074,#1075,#1076);
#1074 = CARTESIAN_POINT('',(-1.075,1.177717431005E-16,0.));
#1075 = DIRECTION('',(0.,0.,1.));
#1076 = DIRECTION('',(-8.056788489148E-16,-1.,0.));
#1077 = CYLINDRICAL_SURFACE('',#1078,0.325);
#1078 = AXIS2_PLACEMENT_3D('',#1079,#1080,#1081);
#1079 = CARTESIAN_POINT('',(-1.075,1.177717431005E-16,0.));
#1080 = DIRECTION('',(0.,0.,-1.));
#1081 = DIRECTION('',(-8.056788489148E-16,-1.,0.));
#1082 = ADVANCED_FACE('',(#1083),#1102,.F.);
#1083 = FACE_BOUND('',#1084,.F.);
#1084 = EDGE_LOOP('',(#1085,#1086,#1087,#1088,#1096));
#1085 = ORIENTED_EDGE('',*,*,#1063,.T.);
#1086 = ORIENTED_EDGE('',*,*,#758,.T.);
#1087 = ORIENTED_EDGE('',*,*,#814,.T.);
#1088 = ORIENTED_EDGE('',*,*,#1089,.F.);
#1089 = EDGE_CURVE('',#1090,#815,#1092,.T.);
#1090 = VERTEX_POINT('',#1091);
#1091 = CARTESIAN_POINT('',(-3.25,0.325,0.));
#1092 = LINE('',#1093,#1094);
#1093 = CARTESIAN_POINT('',(-3.25,0.325,0.));
#1094 = VECTOR('',#1095,1.);
#1095 = DIRECTION('',(0.,0.,1.));
#1096 = ORIENTED_EDGE('',*,*,#1097,.F.);
#1097 = EDGE_CURVE('',#1064,#1090,#1098,.T.);
#1098 = LINE('',#1099,#1100);
#1099 = CARTESIAN_POINT('',(-1.075,0.325,0.));
#1100 = VECTOR('',#1101,1.);
#1101 = DIRECTION('',(-1.,1.479870482969E-16,0.));
#1102 = PLANE('',#1103);
#1103 = AXIS2_PLACEMENT_3D('',#1104,#1105,#1106);
#1104 = CARTESIAN_POINT('',(-1.075,0.325,0.));
#1105 = DIRECTION('',(-1.479870482969E-16,-1.,0.));
#1106 = DIRECTION('',(-1.,1.479870482969E-16,0.));
#1107 = ADVANCED_FACE('',(#1108),#1134,.F.);
#1108 = FACE_BOUND('',#1109,.F.);
#1109 = EDGE_LOOP('',(#1110,#1118,#1119,#1120,#1128));
#1110 = ORIENTED_EDGE('',*,*,#1111,.T.);
#1111 = EDGE_CURVE('',#1112,#955,#1114,.T.);
#1112 = VERTEX_POINT('',#1113);
#1113 = CARTESIAN_POINT('',(3.25,0.325,0.));
#1114 = LINE('',#1115,#1116);
#1115 = CARTESIAN_POINT('',(3.25,0.325,0.));
#1116 = VECTOR('',#1117,1.);
#1117 = DIRECTION('',(0.,0.,1.));
#1118 = ORIENTED_EDGE('',*,*,#962,.T.);
#1119 = ORIENTED_EDGE('',*,*,#736,.T.);
#1120 = ORIENTED_EDGE('',*,*,#1121,.F.);
#1121 = EDGE_CURVE('',#1122,#728,#1124,.T.);
#1122 = VERTEX_POINT('',#1123);
#1123 = CARTESIAN_POINT('',(1.075,0.325,0.));
#1124 = LINE('',#1125,#1126);
#1125 = CARTESIAN_POINT('',(1.075,0.325,0.));
#1126 = VECTOR('',#1127,1.);
#1127 = DIRECTION('',(0.,0.,1.));
#1128 = ORIENTED_EDGE('',*,*,#1129,.F.);
#1129 = EDGE_CURVE('',#1112,#1122,#1130,.T.);
#1130 = LINE('',#1131,#1132);
#1131 = CARTESIAN_POINT('',(3.25,0.325,0.));
#1132 = VECTOR('',#1133,1.);
#1133 = DIRECTION('',(-1.,2.449293598295E-16,0.));
#1134 = PLANE('',#1135);
#1135 = AXIS2_PLACEMENT_3D('',#1136,#1137,#1138);
#1136 = CARTESIAN_POINT('',(3.25,0.325,0.));
#1137 = DIRECTION('',(-2.449293598295E-16,-1.,0.));
#1138 = DIRECTION('',(-1.,2.449293598295E-16,0.));
#1139 = ADVANCED_FACE('',(#1140),#1159,.T.);
#1140 = FACE_BOUND('',#1141,.F.);
#1141 = EDGE_LOOP('',(#1142,#1143,#1144,#1152));
#1142 = ORIENTED_EDGE('',*,*,#1121,.T.);
#1143 = ORIENTED_EDGE('',*,*,#727,.T.);
#1144 = ORIENTED_EDGE('',*,*,#1145,.F.);
#1145 = EDGE_CURVE('',#1146,#720,#1148,.T.);
#1146 = VERTEX_POINT('',#1147);
#1147 = CARTESIAN_POINT('',(1.075,-0.325,0.));
#1148 = LINE('',#1149,#1150);
#1149 = CARTESIAN_POINT('',(1.075,-0.325,0.));
#1150 = VECTOR('',#1151,1.);
#1151 = DIRECTION('',(0.,0.,1.));
#1152 = ORIENTED_EDGE('',*,*,#1153,.F.);
#1153 = EDGE_CURVE('',#1122,#1146,#1154,.T.);
#1154 = CIRCLE('',#1155,0.325);
#1155 = AXIS2_PLACEMENT_3D('',#1156,#1157,#1158);
#1156 = CARTESIAN_POINT('',(1.075,-2.494212740089E-16,0.));
#1157 = DIRECTION('',(0.,-0.,1.));
#1158 = DIRECTION('',(9.281435288296E-16,1.,0.));
#1159 = CYLINDRICAL_SURFACE('',#1160,0.325);
#1160 = AXIS2_PLACEMENT_3D('',#1161,#1162,#1163);
#1161 = CARTESIAN_POINT('',(1.075,-2.494212740089E-16,0.));
#1162 = DIRECTION('',(-0.,0.,-1.));
#1163 = DIRECTION('',(9.281435288296E-16,1.,0.));
#1164 = ADVANCED_FACE('',(#1165),#1184,.F.);
#1165 = FACE_BOUND('',#1166,.F.);
#1166 = EDGE_LOOP('',(#1167,#1168,#1169,#1170,#1178));
#1167 = ORIENTED_EDGE('',*,*,#1145,.T.);
#1168 = ORIENTED_EDGE('',*,*,#719,.T.);
#1169 = ORIENTED_EDGE('',*,*,#946,.T.);
#1170 = ORIENTED_EDGE('',*,*,#1171,.F.);
#1171 = EDGE_CURVE('',#1172,#947,#1174,.T.);
#1172 = VERTEX_POINT('',#1173);
#1173 = CARTESIAN_POINT('',(3.25,-0.325,0.));
#1174 = LINE('',#1175,#1176);
#1175 = CARTESIAN_POINT('',(3.25,-0.325,0.));
#1176 = VECTOR('',#1177,1.);
#1177 = DIRECTION('',(0.,0.,1.));
#1178 = ORIENTED_EDGE('',*,*,#1179,.F.);
#1179 = EDGE_CURVE('',#1146,#1172,#1180,.T.);
#1180 = LINE('',#1181,#1182);
#1181 = CARTESIAN_POINT('',(1.075,-0.325,0.));
#1182 = VECTOR('',#1183,1.);
#1183 = DIRECTION('',(1.,-2.704517282117E-16,0.));
#1184 = PLANE('',#1185);
#1185 = AXIS2_PLACEMENT_3D('',#1186,#1187,#1188);
#1186 = CARTESIAN_POINT('',(1.075,-0.325,0.));
#1187 = DIRECTION('',(2.704517282117E-16,1.,0.));
#1188 = DIRECTION('',(1.,-2.704517282117E-16,0.));
#1189 = ADVANCED_FACE('',(#1190),#1201,.F.);
#1190 = FACE_BOUND('',#1191,.F.);
#1191 = EDGE_LOOP('',(#1192,#1193,#1194,#1195));
#1192 = ORIENTED_EDGE('',*,*,#1089,.T.);
#1193 = ORIENTED_EDGE('',*,*,#822,.T.);
#1194 = ORIENTED_EDGE('',*,*,#1029,.F.);
#1195 = ORIENTED_EDGE('',*,*,#1196,.F.);
#1196 = EDGE_CURVE('',#1090,#1030,#1197,.T.);
#1197 = LINE('',#1198,#1199);
#1198 = CARTESIAN_POINT('',(-3.25,0.325,0.));
#1199 = VECTOR('',#1200,1.);
#1200 = DIRECTION('',(-1.224646799147E-16,-1.,0.));
#1201 = PLANE('',#1202);
#1202 = AXIS2_PLACEMENT_3D('',#1203,#1204,#1205);
#1203 = CARTESIAN_POINT('',(-3.25,0.325,0.));
#1204 = DIRECTION('',(1.,-1.224646799147E-16,0.));
#1205 = DIRECTION('',(-1.224646799147E-16,-1.,0.));
#1206 = ADVANCED_FACE('',(#1207),#1218,.F.);
#1207 = FACE_BOUND('',#1208,.F.);
#1208 = EDGE_LOOP('',(#1209,#1210,#1211,#1212));
#1209 = ORIENTED_EDGE('',*,*,#1171,.T.);
#1210 = ORIENTED_EDGE('',*,*,#954,.T.);
#1211 = ORIENTED_EDGE('',*,*,#1111,.F.);
#1212 = ORIENTED_EDGE('',*,*,#1213,.F.);
#1213 = EDGE_CURVE('',#1172,#1112,#1214,.T.);
#1214 = LINE('',#1215,#1216);
#1215 = CARTESIAN_POINT('',(3.25,-0.325,0.));
#1216 = VECTOR('',#1217,1.);
#1217 = DIRECTION('',(2.449293598295E-16,1.,0.));
#1218 = PLANE('',#1219);
#1219 = AXIS2_PLACEMENT_3D('',#1220,#1221,#1222);
#1220 = CARTESIAN_POINT('',(3.25,-0.325,0.));
#1221 = DIRECTION('',(-1.,2.449293598295E-16,0.));
#1222 = DIRECTION('',(2.449293598295E-16,1.,0.));
#1223 = ADVANCED_FACE('',(#1224),#1260,.T.);
#1224 = FACE_BOUND('',#1225,.F.);
#1225 = EDGE_LOOP('',(#1226,#1235,#1236,#1253));
#1226 = ORIENTED_EDGE('',*,*,#1227,.F.);
#1227 = EDGE_CURVE('',#978,#1228,#1230,.T.);
#1228 = VERTEX_POINT('',#1229);
#1229 = CARTESIAN_POINT('',(-2.166666666667,2.653401398153E-16,3.));
#1230 = CIRCLE('',#1231,0.333333333333);
#1231 = AXIS2_PLACEMENT_3D('',#1232,#1233,#1234);
#1232 = CARTESIAN_POINT('',(-2.166666666667,2.653401398153E-16,
2.666666666667));
#1233 = DIRECTION('',(1.224646799147E-16,1.,-0.));
#1234 = DIRECTION('',(-1.,1.224646799147E-16,0.));
#1235 = ORIENTED_EDGE('',*,*,#1012,.T.);
#1236 = ORIENTED_EDGE('',*,*,#1237,.T.);
#1237 = EDGE_CURVE('',#1004,#1238,#1240,.T.);
#1238 = VERTEX_POINT('',#1239);
#1239 = CARTESIAN_POINT('',(0.75,2.032718486275,3.));
#1240 = B_SPLINE_CURVE_WITH_KNOTS('',6,(#1241,#1242,#1243,#1244,#1245,
#1246,#1247,#1248,#1249,#1250,#1251,#1252),.UNSPECIFIED.,.F.,.F.,(7,
5,7),(0.,0.499020751699,1.),.UNSPECIFIED.);
#1241 = CARTESIAN_POINT('',(0.75,2.384848003542,2.666666666667));
#1242 = CARTESIAN_POINT('',(0.75,2.384847998942,2.710549861735));
#1243 = CARTESIAN_POINT('',(0.75,2.37758066201,2.754440310642));
#1244 = CARTESIAN_POINT('',(0.75,2.363041205805,2.796916059338));
#1245 = CARTESIAN_POINT('',(0.75,2.341647195245,2.836583111733));
#1246 = CARTESIAN_POINT('',(0.75,2.314175106764,2.872240879077));
#1247 = CARTESIAN_POINT('',(0.75,2.249014912913,2.933825733698));
#1248 = CARTESIAN_POINT('',(0.75,2.211279226532,2.959721705089));
#1249 = CARTESIAN_POINT('',(0.75,2.169486849213,2.97973531257));
#1250 = CARTESIAN_POINT('',(0.75,2.124899397612,2.993253813375));
#1251 = CARTESIAN_POINT('',(0.75,2.078859779451,2.999999995685));
#1252 = CARTESIAN_POINT('',(0.75,2.032718486275,3.));
#1253 = ORIENTED_EDGE('',*,*,#1254,.F.);
#1254 = EDGE_CURVE('',#1228,#1238,#1255,.T.);
#1255 = CIRCLE('',#1256,2.166666666667);
#1256 = AXIS2_PLACEMENT_3D('',#1257,#1258,#1259);
#1257 = CARTESIAN_POINT('',(0.,0.,3.));
#1258 = DIRECTION('',(0.,0.,-1.));
#1259 = DIRECTION('',(-1.,1.224646799147E-16,0.));
#1260 = TOROIDAL_SURFACE('',#1261,2.166666666667,0.333333333333);
#1261 = AXIS2_PLACEMENT_3D('',#1262,#1263,#1264);
#1262 = CARTESIAN_POINT('',(0.,0.,2.666666666667));
#1263 = DIRECTION('',(0.,0.,1.));
#1264 = DIRECTION('',(-1.,1.224646799147E-16,0.));
#1265 = ADVANCED_FACE('',(#1266),#1295,.T.);
#1266 = FACE_BOUND('',#1267,.F.);
#1267 = EDGE_LOOP('',(#1268,#1269,#1270,#1271,#1288));
#1268 = ORIENTED_EDGE('',*,*,#1237,.F.);
#1269 = ORIENTED_EDGE('',*,*,#1003,.T.);
#1270 = ORIENTED_EDGE('',*,*,#994,.T.);
#1271 = ORIENTED_EDGE('',*,*,#1272,.T.);
#1272 = EDGE_CURVE('',#986,#1273,#1275,.T.);
#1273 = VERTEX_POINT('',#1274);
#1274 = CARTESIAN_POINT('',(0.75,-2.032718486275,3.));
#1275 = B_SPLINE_CURVE_WITH_KNOTS('',6,(#1276,#1277,#1278,#1279,#1280,
#1281,#1282,#1283,#1284,#1285,#1286,#1287),.UNSPECIFIED.,.F.,.F.,(7,
5,7),(0.,0.499020751701,1.),.UNSPECIFIED.);
#1276 = CARTESIAN_POINT('',(0.75,-2.384848003542,2.666666666667));
#1277 = CARTESIAN_POINT('',(0.75,-2.384847998942,2.710549861735));
#1278 = CARTESIAN_POINT('',(0.75,-2.37758066201,2.754440310643));
#1279 = CARTESIAN_POINT('',(0.75,-2.363041205805,2.796916059338));
#1280 = CARTESIAN_POINT('',(0.75,-2.341647195245,2.836583111734));
#1281 = CARTESIAN_POINT('',(0.75,-2.314175106763,2.872240879077));
#1282 = CARTESIAN_POINT('',(0.75,-2.249014912912,2.933825733699));
#1283 = CARTESIAN_POINT('',(0.75,-2.211279226531,2.95972170509));
#1284 = CARTESIAN_POINT('',(0.75,-2.169486849213,2.97973531257));
#1285 = CARTESIAN_POINT('',(0.75,-2.124899397612,2.993253813375));
#1286 = CARTESIAN_POINT('',(0.75,-2.078859779451,2.999999995685));
#1287 = CARTESIAN_POINT('',(0.75,-2.032718486275,3.));
#1288 = ORIENTED_EDGE('',*,*,#1289,.F.);
#1289 = EDGE_CURVE('',#1238,#1273,#1290,.T.);
#1290 = CIRCLE('',#1291,2.166666666667);
#1291 = AXIS2_PLACEMENT_3D('',#1292,#1293,#1294);
#1292 = CARTESIAN_POINT('',(0.,0.,3.));
#1293 = DIRECTION('',(0.,0.,-1.));
#1294 = DIRECTION('',(-1.,1.224646799147E-16,0.));
#1295 = TOROIDAL_SURFACE('',#1296,2.166666666667,0.333333333333);
#1296 = AXIS2_PLACEMENT_3D('',#1297,#1298,#1299);
#1297 = CARTESIAN_POINT('',(0.,0.,2.666666666667));
#1298 = DIRECTION('',(0.,0.,1.));
#1299 = DIRECTION('',(-1.,1.224646799147E-16,0.));
#1300 = ADVANCED_FACE('',(#1301),#1313,.T.);
#1301 = FACE_BOUND('',#1302,.F.);
#1302 = EDGE_LOOP('',(#1303,#1304,#1305,#1312));
#1303 = ORIENTED_EDGE('',*,*,#985,.T.);
#1304 = ORIENTED_EDGE('',*,*,#1227,.T.);
#1305 = ORIENTED_EDGE('',*,*,#1306,.F.);
#1306 = EDGE_CURVE('',#1273,#1228,#1307,.T.);
#1307 = CIRCLE('',#1308,2.166666666667);
#1308 = AXIS2_PLACEMENT_3D('',#1309,#1310,#1311);
#1309 = CARTESIAN_POINT('',(0.,0.,3.));
#1310 = DIRECTION('',(0.,0.,-1.));
#1311 = DIRECTION('',(-1.,1.224646799147E-16,0.));
#1312 = ORIENTED_EDGE('',*,*,#1272,.F.);
#1313 = TOROIDAL_SURFACE('',#1314,2.166666666667,0.333333333333);
#1314 = AXIS2_PLACEMENT_3D('',#1315,#1316,#1317);
#1315 = CARTESIAN_POINT('',(0.,0.,2.666666666667));
#1316 = DIRECTION('',(0.,0.,1.));
#1317 = DIRECTION('',(-1.,1.224646799147E-16,0.));
#1318 = ADVANCED_FACE('',(#1319),#1325,.F.);
#1319 = FACE_BOUND('',#1320,.F.);
#1320 = EDGE_LOOP('',(#1321,#1322,#1323,#1324));
#1321 = ORIENTED_EDGE('',*,*,#1196,.T.);
#1322 = ORIENTED_EDGE('',*,*,#1047,.T.);
#1323 = ORIENTED_EDGE('',*,*,#1071,.T.);
#1324 = ORIENTED_EDGE('',*,*,#1097,.T.);
#1325 = PLANE('',#1326);
#1326 = AXIS2_PLACEMENT_3D('',#1327,#1328,#1329);
#1327 = CARTESIAN_POINT('',(-2.072728390536,2.25964311166E-16,0.));
#1328 = DIRECTION('',(0.,0.,1.));
#1329 = DIRECTION('',(-1.,1.224646799147E-16,0.));
#1330 = ADVANCED_FACE('',(#1331),#1337,.F.);
#1331 = FACE_BOUND('',#1332,.F.);
#1332 = EDGE_LOOP('',(#1333,#1334,#1335,#1336));
#1333 = ORIENTED_EDGE('',*,*,#1213,.T.);
#1334 = ORIENTED_EDGE('',*,*,#1129,.T.);
#1335 = ORIENTED_EDGE('',*,*,#1153,.T.);
#1336 = ORIENTED_EDGE('',*,*,#1179,.T.);
#1337 = PLANE('',#1338);
#1338 = AXIS2_PLACEMENT_3D('',#1339,#1340,#1341);
#1339 = CARTESIAN_POINT('',(2.072728390536,-4.798003300631E-16,0.));
#1340 = DIRECTION('',(0.,0.,1.));
#1341 = DIRECTION('',(1.,-2.449293598295E-16,0.));
#1342 = ADVANCED_FACE('',(#1343),#1353,.F.);
#1343 = FACE_BOUND('',#1344,.F.);
#1344 = EDGE_LOOP('',(#1345,#1346,#1347));
#1345 = ORIENTED_EDGE('',*,*,#1306,.T.);
#1346 = ORIENTED_EDGE('',*,*,#1254,.T.);
#1347 = ORIENTED_EDGE('',*,*,#1348,.T.);
#1348 = EDGE_CURVE('',#1238,#1273,#1349,.T.);
#1349 = LINE('',#1350,#1351);
#1350 = CARTESIAN_POINT('',(0.75,2.5,3.));
#1351 = VECTOR('',#1352,1.);
#1352 = DIRECTION('',(-1.224646799147E-16,-1.,0.));
#1353 = PLANE('',#1354);
#1354 = AXIS2_PLACEMENT_3D('',#1355,#1356,#1357);
#1355 = CARTESIAN_POINT('',(0.,0.,3.));
#1356 = DIRECTION('',(-0.,0.,-1.));
#1357 = DIRECTION('',(-1.,1.224646799147E-16,0.));
#1358 = ADVANCED_FACE('',(#1359),#1363,.T.);
#1359 = FACE_BOUND('',#1360,.T.);
#1360 = EDGE_LOOP('',(#1361,#1362));
#1361 = ORIENTED_EDGE('',*,*,#1289,.F.);
#1362 = ORIENTED_EDGE('',*,*,#1348,.T.);
#1363 = PLANE('',#1364);
#1364 = AXIS2_PLACEMENT_3D('',#1365,#1366,#1367);
#1365 = CARTESIAN_POINT('',(2.5,2.5,3.));
#1366 = DIRECTION('',(0.,0.,1.));
#1367 = DIRECTION('',(-1.,1.224646799147E-16,0.));
#1368 = ( GEOMETRIC_REPRESENTATION_CONTEXT(3)
GLOBAL_UNCERTAINTY_ASSIGNED_CONTEXT((#1372))
GLOBAL_UNIT_ASSIGNED_CONTEXT((#1369,#1370,#1371)) REPRESENTATION_CONTEXT
('Context #1','3D Context with UNIT and UNCERTAINTY') );
#1369 = ( LENGTH_UNIT() NAMED_UNIT(*) SI_UNIT(.MILLI.,.METRE.) );
#1370 = ( NAMED_UNIT(*) PLANE_ANGLE_UNIT() SI_UNIT($,.RADIAN.) );
#1371 = ( NAMED_UNIT(*) SI_UNIT($,.STERADIAN.) SOLID_ANGLE_UNIT() );
#1372 = UNCERTAINTY_MEASURE_WITH_UNIT(LENGTH_MEASURE(2.E-06),#1369,
'distance_accuracy_value','confusion accuracy');
#1373 = PRODUCT_RELATED_PRODUCT_CATEGORY('part',$,(#7));
#1374 = MECHANICAL_DESIGN_GEOMETRIC_PRESENTATION_REPRESENTATION('',(
#1375,#1383,#1390,#1397,#1405,#1412,#1419,#1426,#1433,#1440,#1447,
#1454,#1461,#1468,#1475,#1482,#1489,#1496,#1503,#1510,#1517,#1524,
#1531,#1538,#1545,#1552,#1559,#1566,#1573,#1580,#1587,#1594,#1601,
#1608,#1615,#1622,#1629,#1636,#1643,#1650,#1657),#1368);
#1375 = STYLED_ITEM('color',(#1376),#17);
#1376 = PRESENTATION_STYLE_ASSIGNMENT((#1377));
#1377 = SURFACE_STYLE_USAGE(.BOTH.,#1378);
#1378 = SURFACE_SIDE_STYLE('',(#1379));
#1379 = SURFACE_STYLE_FILL_AREA(#1380);
#1380 = FILL_AREA_STYLE('',(#1381));
#1381 = FILL_AREA_STYLE_COLOUR('',#1382);
#1382 = COLOUR_RGB('',0.824000000954,0.819999992847,0.78100001812);
#1383 = STYLED_ITEM('color',(#1384),#60);
#1384 = PRESENTATION_STYLE_ASSIGNMENT((#1385));
#1385 = SURFACE_STYLE_USAGE(.BOTH.,#1386);
#1386 = SURFACE_SIDE_STYLE('',(#1387));
#1387 = SURFACE_STYLE_FILL_AREA(#1388);
#1388 = FILL_AREA_STYLE('',(#1389));
#1389 = FILL_AREA_STYLE_COLOUR('',#1382);
#1390 = STYLED_ITEM('color',(#1391),#86);
#1391 = PRESENTATION_STYLE_ASSIGNMENT((#1392));
#1392 = SURFACE_STYLE_USAGE(.BOTH.,#1393);
#1393 = SURFACE_SIDE_STYLE('',(#1394));
#1394 = SURFACE_STYLE_FILL_AREA(#1395);
#1395 = FILL_AREA_STYLE('',(#1396));
#1396 = FILL_AREA_STYLE_COLOUR('',#1382);
#1397 = STYLED_ITEM('color',(#1398),#159);
#1398 = PRESENTATION_STYLE_ASSIGNMENT((#1399));
#1399 = SURFACE_STYLE_USAGE(.BOTH.,#1400);
#1400 = SURFACE_SIDE_STYLE('',(#1401));
#1401 = SURFACE_STYLE_FILL_AREA(#1402);
#1402 = FILL_AREA_STYLE('',(#1403));
#1403 = FILL_AREA_STYLE_COLOUR('',#1404);
#1404 = COLOUR_RGB('',0.148000001907,0.144999995828,0.144999995828);
#1405 = STYLED_ITEM('color',(#1406),#238);
#1406 = PRESENTATION_STYLE_ASSIGNMENT((#1407));
#1407 = SURFACE_STYLE_USAGE(.BOTH.,#1408);
#1408 = SURFACE_SIDE_STYLE('',(#1409));
#1409 = SURFACE_STYLE_FILL_AREA(#1410);
#1410 = FILL_AREA_STYLE('',(#1411));
#1411 = FILL_AREA_STYLE_COLOUR('',#1382);
#1412 = STYLED_ITEM('color',(#1413),#278);
#1413 = PRESENTATION_STYLE_ASSIGNMENT((#1414));
#1414 = SURFACE_STYLE_USAGE(.BOTH.,#1415);
#1415 = SURFACE_SIDE_STYLE('',(#1416));
#1416 = SURFACE_STYLE_FILL_AREA(#1417);
#1417 = FILL_AREA_STYLE('',(#1418));
#1418 = FILL_AREA_STYLE_COLOUR('',#1404);
#1419 = STYLED_ITEM('color',(#1420),#357);
#1420 = PRESENTATION_STYLE_ASSIGNMENT((#1421));
#1421 = SURFACE_STYLE_USAGE(.BOTH.,#1422);
#1422 = SURFACE_SIDE_STYLE('',(#1423));
#1423 = SURFACE_STYLE_FILL_AREA(#1424);
#1424 = FILL_AREA_STYLE('',(#1425));
#1425 = FILL_AREA_STYLE_COLOUR('',#1404);
#1426 = STYLED_ITEM('color',(#1427),#382);
#1427 = PRESENTATION_STYLE_ASSIGNMENT((#1428));
#1428 = SURFACE_STYLE_USAGE(.BOTH.,#1429);
#1429 = SURFACE_SIDE_STYLE('',(#1430));
#1430 = SURFACE_STYLE_FILL_AREA(#1431);
#1431 = FILL_AREA_STYLE('',(#1432));
#1432 = FILL_AREA_STYLE_COLOUR('',#1404);
#1433 = STYLED_ITEM('color',(#1434),#407);
#1434 = PRESENTATION_STYLE_ASSIGNMENT((#1435));
#1435 = SURFACE_STYLE_USAGE(.BOTH.,#1436);
#1436 = SURFACE_SIDE_STYLE('',(#1437));
#1437 = SURFACE_STYLE_FILL_AREA(#1438);
#1438 = FILL_AREA_STYLE('',(#1439));
#1439 = FILL_AREA_STYLE_COLOUR('',#1404);
#1440 = STYLED_ITEM('color',(#1441),#463);
#1441 = PRESENTATION_STYLE_ASSIGNMENT((#1442));
#1442 = SURFACE_STYLE_USAGE(.BOTH.,#1443);
#1443 = SURFACE_SIDE_STYLE('',(#1444));
#1444 = SURFACE_STYLE_FILL_AREA(#1445);
#1445 = FILL_AREA_STYLE('',(#1446));
#1446 = FILL_AREA_STYLE_COLOUR('',#1404);
#1447 = STYLED_ITEM('color',(#1448),#519);
#1448 = PRESENTATION_STYLE_ASSIGNMENT((#1449));
#1449 = SURFACE_STYLE_USAGE(.BOTH.,#1450);
#1450 = SURFACE_SIDE_STYLE('',(#1451));
#1451 = SURFACE_STYLE_FILL_AREA(#1452);
#1452 = FILL_AREA_STYLE('',(#1453));
#1453 = FILL_AREA_STYLE_COLOUR('',#1404);
#1454 = STYLED_ITEM('color',(#1455),#544);
#1455 = PRESENTATION_STYLE_ASSIGNMENT((#1456));
#1456 = SURFACE_STYLE_USAGE(.BOTH.,#1457);
#1457 = SURFACE_SIDE_STYLE('',(#1458));
#1458 = SURFACE_STYLE_FILL_AREA(#1459);
#1459 = FILL_AREA_STYLE('',(#1460));
#1460 = FILL_AREA_STYLE_COLOUR('',#1404);
#1461 = STYLED_ITEM('color',(#1462),#569);
#1462 = PRESENTATION_STYLE_ASSIGNMENT((#1463));
#1463 = SURFACE_STYLE_USAGE(.BOTH.,#1464);
#1464 = SURFACE_SIDE_STYLE('',(#1465));
#1465 = SURFACE_STYLE_FILL_AREA(#1466);
#1466 = FILL_AREA_STYLE('',(#1467));
#1467 = FILL_AREA_STYLE_COLOUR('',#1404);
#1468 = STYLED_ITEM('color',(#1469),#634);
#1469 = PRESENTATION_STYLE_ASSIGNMENT((#1470));
#1470 = SURFACE_STYLE_USAGE(.BOTH.,#1471);
#1471 = SURFACE_SIDE_STYLE('',(#1472));
#1472 = SURFACE_STYLE_FILL_AREA(#1473);
#1473 = FILL_AREA_STYLE('',(#1474));
#1474 = FILL_AREA_STYLE_COLOUR('',#1382);
#1475 = STYLED_ITEM('color',(#1476),#707);
#1476 = PRESENTATION_STYLE_ASSIGNMENT((#1477));
#1477 = SURFACE_STYLE_USAGE(.BOTH.,#1478);
#1478 = SURFACE_SIDE_STYLE('',(#1479));
#1479 = SURFACE_STYLE_FILL_AREA(#1480);
#1480 = FILL_AREA_STYLE('',(#1481));
#1481 = FILL_AREA_STYLE_COLOUR('',#1404);
#1482 = STYLED_ITEM('color',(#1483),#793);
#1483 = PRESENTATION_STYLE_ASSIGNMENT((#1484));
#1484 = SURFACE_STYLE_USAGE(.BOTH.,#1485);
#1485 = SURFACE_SIDE_STYLE('',(#1486));
#1486 = SURFACE_STYLE_FILL_AREA(#1487);
#1487 = FILL_AREA_STYLE('',(#1488));
#1488 = FILL_AREA_STYLE_COLOUR('',#1404);
#1489 = STYLED_ITEM('color',(#1490),#810);
#1490 = PRESENTATION_STYLE_ASSIGNMENT((#1491));
#1491 = SURFACE_STYLE_USAGE(.BOTH.,#1492);
#1492 = SURFACE_SIDE_STYLE('',(#1493));
#1493 = SURFACE_STYLE_FILL_AREA(#1494);
#1494 = FILL_AREA_STYLE('',(#1495));
#1495 = FILL_AREA_STYLE_COLOUR('',#1382);
#1496 = STYLED_ITEM('color',(#1497),#841);
#1497 = PRESENTATION_STYLE_ASSIGNMENT((#1498));
#1498 = SURFACE_STYLE_USAGE(.BOTH.,#1499);
#1499 = SURFACE_SIDE_STYLE('',(#1500));
#1500 = SURFACE_STYLE_FILL_AREA(#1501);
#1501 = FILL_AREA_STYLE('',(#1502));
#1502 = FILL_AREA_STYLE_COLOUR('',#1404);
#1503 = STYLED_ITEM('color',(#1504),#853);
#1504 = PRESENTATION_STYLE_ASSIGNMENT((#1505));
#1505 = SURFACE_STYLE_USAGE(.BOTH.,#1506);
#1506 = SURFACE_SIDE_STYLE('',(#1507));
#1507 = SURFACE_STYLE_FILL_AREA(#1508);
#1508 = FILL_AREA_STYLE('',(#1509));
#1509 = FILL_AREA_STYLE_COLOUR('',#1404);
#1510 = STYLED_ITEM('color',(#1511),#870);
#1511 = PRESENTATION_STYLE_ASSIGNMENT((#1512));
#1512 = SURFACE_STYLE_USAGE(.BOTH.,#1513);
#1513 = SURFACE_SIDE_STYLE('',(#1514));
#1514 = SURFACE_STYLE_FILL_AREA(#1515);
#1515 = FILL_AREA_STYLE('',(#1516));
#1516 = FILL_AREA_STYLE_COLOUR('',#1404);
#1517 = STYLED_ITEM('color',(#1518),#882);
#1518 = PRESENTATION_STYLE_ASSIGNMENT((#1519));
#1519 = SURFACE_STYLE_USAGE(.BOTH.,#1520);
#1520 = SURFACE_SIDE_STYLE('',(#1521));
#1521 = SURFACE_STYLE_FILL_AREA(#1522);
#1522 = FILL_AREA_STYLE('',(#1523));
#1523 = FILL_AREA_STYLE_COLOUR('',#1404);
#1524 = STYLED_ITEM('color',(#1525),#900);
#1525 = PRESENTATION_STYLE_ASSIGNMENT((#1526));
#1526 = SURFACE_STYLE_USAGE(.BOTH.,#1527);
#1527 = SURFACE_SIDE_STYLE('',(#1528));
#1528 = SURFACE_STYLE_FILL_AREA(#1529);
#1529 = FILL_AREA_STYLE('',(#1530));
#1530 = FILL_AREA_STYLE_COLOUR('',#1404);
#1531 = STYLED_ITEM('color',(#1532),#912);
#1532 = PRESENTATION_STYLE_ASSIGNMENT((#1533));
#1533 = SURFACE_STYLE_USAGE(.BOTH.,#1534);
#1534 = SURFACE_SIDE_STYLE('',(#1535));
#1535 = SURFACE_STYLE_FILL_AREA(#1536);
#1536 = FILL_AREA_STYLE('',(#1537));
#1537 = FILL_AREA_STYLE_COLOUR('',#1404);
#1538 = STYLED_ITEM('color',(#1539),#930);
#1539 = PRESENTATION_STYLE_ASSIGNMENT((#1540));
#1540 = SURFACE_STYLE_USAGE(.BOTH.,#1541);
#1541 = SURFACE_SIDE_STYLE('',(#1542));
#1542 = SURFACE_STYLE_FILL_AREA(#1543);
#1543 = FILL_AREA_STYLE('',(#1544));
#1544 = FILL_AREA_STYLE_COLOUR('',#1404);
#1545 = STYLED_ITEM('color',(#1546),#942);
#1546 = PRESENTATION_STYLE_ASSIGNMENT((#1547));
#1547 = SURFACE_STYLE_USAGE(.BOTH.,#1548);
#1548 = SURFACE_SIDE_STYLE('',(#1549));
#1549 = SURFACE_STYLE_FILL_AREA(#1550);
#1550 = FILL_AREA_STYLE('',(#1551));
#1551 = FILL_AREA_STYLE_COLOUR('',#1382);
#1552 = STYLED_ITEM('color',(#1553),#973);
#1553 = PRESENTATION_STYLE_ASSIGNMENT((#1554));
#1554 = SURFACE_STYLE_USAGE(.BOTH.,#1555);
#1555 = SURFACE_SIDE_STYLE('',(#1556));
#1556 = SURFACE_STYLE_FILL_AREA(#1557);
#1557 = FILL_AREA_STYLE('',(#1558));
#1558 = FILL_AREA_STYLE_COLOUR('',#1382);
#1559 = STYLED_ITEM('color',(#1560),#1025);
#1560 = PRESENTATION_STYLE_ASSIGNMENT((#1561));
#1561 = SURFACE_STYLE_USAGE(.BOTH.,#1562);
#1562 = SURFACE_SIDE_STYLE('',(#1563));
#1563 = SURFACE_STYLE_FILL_AREA(#1564);
#1564 = FILL_AREA_STYLE('',(#1565));
#1565 = FILL_AREA_STYLE_COLOUR('',#1382);
#1566 = STYLED_ITEM('color',(#1567),#1057);
#1567 = PRESENTATION_STYLE_ASSIGNMENT((#1568));
#1568 = SURFACE_STYLE_USAGE(.BOTH.,#1569);
#1569 = SURFACE_SIDE_STYLE('',(#1570));
#1570 = SURFACE_STYLE_FILL_AREA(#1571);
#1571 = FILL_AREA_STYLE('',(#1572));
#1572 = FILL_AREA_STYLE_COLOUR('',#1382);
#1573 = STYLED_ITEM('color',(#1574),#1082);
#1574 = PRESENTATION_STYLE_ASSIGNMENT((#1575));
#1575 = SURFACE_STYLE_USAGE(.BOTH.,#1576);
#1576 = SURFACE_SIDE_STYLE('',(#1577));
#1577 = SURFACE_STYLE_FILL_AREA(#1578);
#1578 = FILL_AREA_STYLE('',(#1579));
#1579 = FILL_AREA_STYLE_COLOUR('',#1382);
#1580 = STYLED_ITEM('color',(#1581),#1107);
#1581 = PRESENTATION_STYLE_ASSIGNMENT((#1582));
#1582 = SURFACE_STYLE_USAGE(.BOTH.,#1583);
#1583 = SURFACE_SIDE_STYLE('',(#1584));
#1584 = SURFACE_STYLE_FILL_AREA(#1585);
#1585 = FILL_AREA_STYLE('',(#1586));
#1586 = FILL_AREA_STYLE_COLOUR('',#1382);
#1587 = STYLED_ITEM('color',(#1588),#1139);
#1588 = PRESENTATION_STYLE_ASSIGNMENT((#1589));
#1589 = SURFACE_STYLE_USAGE(.BOTH.,#1590);
#1590 = SURFACE_SIDE_STYLE('',(#1591));
#1591 = SURFACE_STYLE_FILL_AREA(#1592);
#1592 = FILL_AREA_STYLE('',(#1593));
#1593 = FILL_AREA_STYLE_COLOUR('',#1382);
#1594 = STYLED_ITEM('color',(#1595),#1164);
#1595 = PRESENTATION_STYLE_ASSIGNMENT((#1596));
#1596 = SURFACE_STYLE_USAGE(.BOTH.,#1597);
#1597 = SURFACE_SIDE_STYLE('',(#1598));
#1598 = SURFACE_STYLE_FILL_AREA(#1599);
#1599 = FILL_AREA_STYLE('',(#1600));
#1600 = FILL_AREA_STYLE_COLOUR('',#1382);
#1601 = STYLED_ITEM('color',(#1602),#1189);
#1602 = PRESENTATION_STYLE_ASSIGNMENT((#1603));
#1603 = SURFACE_STYLE_USAGE(.BOTH.,#1604);
#1604 = SURFACE_SIDE_STYLE('',(#1605));
#1605 = SURFACE_STYLE_FILL_AREA(#1606);
#1606 = FILL_AREA_STYLE('',(#1607));
#1607 = FILL_AREA_STYLE_COLOUR('',#1382);
#1608 = STYLED_ITEM('color',(#1609),#1206);
#1609 = PRESENTATION_STYLE_ASSIGNMENT((#1610));
#1610 = SURFACE_STYLE_USAGE(.BOTH.,#1611);
#1611 = SURFACE_SIDE_STYLE('',(#1612));
#1612 = SURFACE_STYLE_FILL_AREA(#1613);
#1613 = FILL_AREA_STYLE('',(#1614));
#1614 = FILL_AREA_STYLE_COLOUR('',#1382);
#1615 = STYLED_ITEM('color',(#1616),#1223);
#1616 = PRESENTATION_STYLE_ASSIGNMENT((#1617));
#1617 = SURFACE_STYLE_USAGE(.BOTH.,#1618);
#1618 = SURFACE_SIDE_STYLE('',(#1619));
#1619 = SURFACE_STYLE_FILL_AREA(#1620);
#1620 = FILL_AREA_STYLE('',(#1621));
#1621 = FILL_AREA_STYLE_COLOUR('',#1382);
#1622 = STYLED_ITEM('color',(#1623),#1265);
#1623 = PRESENTATION_STYLE_ASSIGNMENT((#1624));
#1624 = SURFACE_STYLE_USAGE(.BOTH.,#1625);
#1625 = SURFACE_SIDE_STYLE('',(#1626));
#1626 = SURFACE_STYLE_FILL_AREA(#1627);
#1627 = FILL_AREA_STYLE('',(#1628));
#1628 = FILL_AREA_STYLE_COLOUR('',#1404);
#1629 = STYLED_ITEM('color',(#1630),#1300);
#1630 = PRESENTATION_STYLE_ASSIGNMENT((#1631));
#1631 = SURFACE_STYLE_USAGE(.BOTH.,#1632);
#1632 = SURFACE_SIDE_STYLE('',(#1633));
#1633 = SURFACE_STYLE_FILL_AREA(#1634);
#1634 = FILL_AREA_STYLE('',(#1635));
#1635 = FILL_AREA_STYLE_COLOUR('',#1382);
#1636 = STYLED_ITEM('color',(#1637),#1318);
#1637 = PRESENTATION_STYLE_ASSIGNMENT((#1638));
#1638 = SURFACE_STYLE_USAGE(.BOTH.,#1639);
#1639 = SURFACE_SIDE_STYLE('',(#1640));
#1640 = SURFACE_STYLE_FILL_AREA(#1641);
#1641 = FILL_AREA_STYLE('',(#1642));
#1642 = FILL_AREA_STYLE_COLOUR('',#1382);
#1643 = STYLED_ITEM('color',(#1644),#1330);
#1644 = PRESENTATION_STYLE_ASSIGNMENT((#1645));
#1645 = SURFACE_STYLE_USAGE(.BOTH.,#1646);
#1646 = SURFACE_SIDE_STYLE('',(#1647));
#1647 = SURFACE_STYLE_FILL_AREA(#1648);
#1648 = FILL_AREA_STYLE('',(#1649));
#1649 = FILL_AREA_STYLE_COLOUR('',#1382);
#1650 = STYLED_ITEM('color',(#1651),#1342);
#1651 = PRESENTATION_STYLE_ASSIGNMENT((#1652));
#1652 = SURFACE_STYLE_USAGE(.BOTH.,#1653);
#1653 = SURFACE_SIDE_STYLE('',(#1654));
#1654 = SURFACE_STYLE_FILL_AREA(#1655);
#1655 = FILL_AREA_STYLE('',(#1656));
#1656 = FILL_AREA_STYLE_COLOUR('',#1382);
#1657 = STYLED_ITEM('color',(#1658),#1358);
#1658 = PRESENTATION_STYLE_ASSIGNMENT((#1659));
#1659 = SURFACE_STYLE_USAGE(.BOTH.,#1660);
#1660 = SURFACE_SIDE_STYLE('',(#1661));
#1661 = SURFACE_STYLE_FILL_AREA(#1662);
#1662 = FILL_AREA_STYLE('',(#1663));
#1663 = FILL_AREA_STYLE_COLOUR('',#1404);
ENDSEC;
END-ISO-10303-21;
